<?xml version="1.0" encoding="UTF-8" standalone="no"?>
<!-- Created with Inkscape (http://www.inkscape.org/) -->

<svg
   xmlns:dc="http://purl.org/dc/elements/1.1/"
   xmlns:cc="http://creativecommons.org/ns#"
   xmlns:rdf="http://www.w3.org/1999/02/22-rdf-syntax-ns#"
   xmlns:svg="http://www.w3.org/2000/svg"
   xmlns="http://www.w3.org/2000/svg"
   xmlns:sodipodi="http://sodipodi.sourceforge.net/DTD/sodipodi-0.dtd"
   xmlns:inkscape="http://www.inkscape.org/namespaces/inkscape"
   width="247.98206mm"
   height="246.70589mm"
   viewBox="0 0 247.98206 246.70588"
   version="1.1"
   id="svg8"
   inkscape:version="0.92.5 (2060ec1f9f, 2020-04-08)"
   sodipodi:docname="e_01.svg">
  <defs
     id="defs2" />
  <sodipodi:namedview
     id="base"
     pagecolor="#ffffff"
     bordercolor="#666666"
     borderopacity="1.0"
     inkscape:pageopacity="0.0"
     inkscape:pageshadow="2"
     inkscape:zoom="0.030935922"
     inkscape:cx="14212.675"
     inkscape:cy="661.64469"
     inkscape:document-units="mm"
     inkscape:current-layer="layer1"
     showgrid="false"
     inkscape:window-width="1920"
     inkscape:window-height="1029"
     inkscape:window-x="0"
     inkscape:window-y="0"
     inkscape:window-maximized="1"
     fit-margin-top="0"
     fit-margin-left="0"
     fit-margin-right="0"
     fit-margin-bottom="0" />
  <metadata
     id="metadata5">
    <rdf:RDF>
      <cc:Work
         rdf:about="">
        <dc:format>image/svg+xml</dc:format>
        <dc:type
           rdf:resource="http://purl.org/dc/dcmitype/StillImage" />
        <dc:title></dc:title>
      </cc:Work>
    </rdf:RDF>
  </metadata>
  <g
     inkscape:label="Calque 1"
     inkscape:groupmode="layer"
     id="layer1"
     transform="translate(6389.4517,228.26688)">
    <path
       style="fill:#000000;stroke-width:0.35277781"
       d="m -6260.458,18.121641 c -2.2313,-0.25291 -5.8032,-0.63937 -7.9375,-0.85878 -2.1343,-0.21942 -4.9918,-0.71349 -6.35,-1.09792 -1.3582,-0.38443 -4.6126,-0.93341 -7.232,-1.21996 -4.7239,-0.51676 -7.1082,-1.05212 -15.4292,-3.46446 -6.6826,-1.9373299 -6.9406,-1.9474799 -9.6323,-0.37868 -1.2533,0.73049 -2.5169,1.51678 -2.8079,1.74731 -0.291,0.23052 -1.4817,0.78259 -2.6458,1.22682 -2.979,1.13671 -12.5089,1.43349 -16.6472,0.51842 -3.9885,-0.88193 -8.1249,-2.46744 -10.2544,-3.93053 -1.774,-1.2188599 -4.8952,-4.8931499 -6.8043,-8.0099999 -1.899,-3.10055999 -3.0025,-7.71295 -3.3465,-13.9889101 -0.1392,-2.53904 -0.3849,-4.18894 -0.6569,-4.40973 -0.2389,-0.19402 -0.5323,-0.61379 -0.6518,-0.93281 -0.1195,-0.31902 -0.8241,-1.03332 -1.5656,-1.58732 -0.7416,-0.554 -1.576,-1.314 -1.8542,-1.6889 -0.2782,-0.37489 -2.6595,-2.84371 -5.2917,-5.48626 -10.8917,-10.93457 -17.3117,-20.90749 -22.7137,-35.28387 -2.6039,-6.92981 -4.9576,-14.81425 -5.5289,-18.52084 -0.2093,-1.35819 -0.6016,-3.58069 -0.8717,-4.93889 -1.8201,-9.15179 -0.2396,-33.856611 2.8324,-44.273601 3.8678,-13.11532 5.9589,-18.73813 10.0365,-26.9875 0.3836,-0.77611 1.1764,-2.65086 1.7617,-4.1661 1.1701,-3.02902 2.5731,-5.935 3.524,-7.29918 0.3382,-0.48507 1.2116,-2.02594 1.9409,-3.42416 1.1562,-2.21667 3.9094,-6.37846 9.6639,-14.6085 1.4143,-2.0227 4.3126,-5.5913 5.9196,-7.28882 0.3542,-0.3741 1.9776,-2.09262 3.6075,-3.81893 5.7948,-6.13736 8.6915,-9.01096 9.6758,-9.59865 0.5487,-0.32761 1.5217,-1.32336 2.1622,-2.21277 1.721,-2.38984 3.8122,-3.90813 7.9526,-5.77385 2.0373,-0.91802 4.8155,-2.26872 6.1737,-3.00154 1.3581,-0.73283 3.9775,-1.92812 5.8208,-2.65621 1.8432,-0.72809 4.6341,-1.92255 6.2018,-2.65435 6.4272,-3.00017 9.3178,-3.7612 16.069,-4.2306 2.4505,-0.17038 5.3874,-0.55086 6.5264,-0.84552 4.7658,-1.23293 12.8017,-1.53944 25.1778,-0.96032 12.7597,0.59708 18.2171,1.26924 23.1069,2.84599 4.6119,1.4871 9.3236,2.90458 11.8181,3.55536 1.7164,0.44779 2.9603,0.97364 8.1117,3.42924 3.4944,1.66574 6.8163,3.76982 11.2911,7.15169 1.4552,1.0998 2.9748,2.17404 3.377,2.3872 0.4021,0.21317 1.3646,0.99237 2.1389,1.73157 3.701,3.5335 7.7102,6.81206 8.3302,6.81206 0.694,0 8.0512,5.49015 10.9396,8.16347 3.5785,3.31192 8.2064,8.59871 11.374,12.99317 1.1642,1.61507 2.5565,3.42897 3.0941,4.03089 0.5376,0.60193 1.4712,1.96754 2.0746,3.03469 1.8428,3.25929 4.6039,7.40833 4.9299,7.40833 0.1696,0 0.3083,0.17641 0.3083,0.39202 0,0.2156 0.6087,1.12842 1.3527,2.02847 0.7439,0.90005 2.1957,3.22396 3.2262,5.16424 1.0305,1.94027 2.1403,3.84527 2.4662,4.23333 1.1321,1.34791 3.8399,6.0286 6.6726,11.53437 2.5837,5.02187 3.7506,8.07763 4.6213,12.10174 0.1679,0.77611 0.5431,2.12549 0.8336,2.99861 0.6805,2.04469 1.155,5.50377 1.7179,12.5236 0.6095,7.60112 0.491,13.845641 -0.415,21.872231 -0.4161,3.68653 -0.8253,7.32903 -0.9093,8.09444 -0.5154,4.69542 -4.6515,17.06212 -6.7207,20.09433 -0.7591,1.11235 -1.7771,2.71345 -2.2621,3.558 -2.9479,5.13247 -3.6503,6.26563 -5.1301,8.27582 -0.9016,1.22471 -1.9264,2.69894 -2.2774,3.27605 -0.3509,0.5771 -2.1219,2.57449 -3.9354,4.43864 -1.8925,1.94526 -3.2455,3.62039 -3.1755,3.9316 0.067,0.29823 0.4242,1.20821 0.7937,2.02218 0.3696,0.81398 0.6719,1.65374 0.6719,1.86614 0,0.2124 0.3135,1.00076 0.6967,1.7519 0.3832,0.75115 0.8452,1.97514 1.0266,2.71998 0.1815,0.74484 0.6464,2.54488 1.0333,4.00009 1.0641,4.00223 1.3116,8.8733 0.5925,11.66022 -1.1683,4.52823 -3.0577,8.8920201 -5.3646,12.3905001 -1.9828,3.00699001 -2.8455,3.92878001 -6.2285,6.65539 -6.1695,4.97249 -9.1203,6.15447 -16.2741,6.51868 -6.2103,0.31618 -9.36,-0.34938 -13.4055,-2.83271 -0.7761,-0.47642 -2.3636,-1.35953 -3.5278,-1.96249 -1.1642,-0.60295 -2.4607,-1.51846 -2.8813,-2.03446 l -0.7646,-0.93819 -1.5506,1.61298 c -2.6962,2.80465 -9.757,7.7313099 -14.4711,10.0971799 -2.9513,1.48113 -5.8637,2.42525 -9.5784,3.10508 -9.9735,1.82521 -10.564,1.88418 -16.0859,1.60631 -1.2612,-0.0635 -2.7693,-0.0296 -3.3514,0.0752 -0.5821,0.10484 -2.884,-0.0163 -5.1153,-0.26923 z m 21.4439,-7.71544 c 7.7025,-1.4188999 10.3488,-2.4808899 15.7477,-6.3197799 4.3062,-3.06199 8.3167,-6.94147 8.3167,-8.04508 0,-0.3782 -0.4109,-1.67667 -0.9132,-2.88549 -1.3018,-3.1333899 -1.5357,-3.9833501 -1.924,-6.9914401 -0.3828,-2.96626 -1.4667,-6.00584 -3.0199,-8.4686 -2.1671,-3.43617 -3.6262,-5.46833 -4.5275,-6.30575 -0.5155,-0.4789 -1.4196,-1.82827 -2.0093,-2.99861 -0.5896,-1.17034 -1.5477,-2.87651 -2.1292,-3.79148 -3.7631,-5.92185 -2.087,-16.84312 3.5149,-22.9029 2.7643,-2.9903 3.8061,-3.37478 10.844,-4.0023 3.2918,-0.29351 6.6201,-0.60649 7.3962,-0.69553 0.853,-0.0979 2.1784,0.098 3.3514,0.49521 1.0671,0.3614 2.8134,0.85203 3.8805,1.09029 1.0672,0.23827 2.4073,0.66985 2.978,0.95906 2.2199,1.12485 12.3127,4.67114 13.2942,4.67114 1.7637,0 7.1313,3.6292 10.5657,7.14375 1.0902,1.11566 2.1732,2.02848 2.4066,2.02848 0.8775,0 4.8995,-4.57204 7.6208,-8.66304 3.6475,-5.48334 3.6411,-5.47306 4.077,-6.49182 0.2042,-0.47704 1.0042,-1.79467 1.7778,-2.92805 2.3387,-3.42614 4.5806,-8.63072 5.4314,-12.60876 0.1452,-0.6791 0.4798,-1.65707 0.7435,-2.17328 0.2636,-0.5162 0.5484,-1.4687 0.6327,-2.11666 0.084,-0.64797 0.4114,-3.16249 0.7269,-5.58784 0.3154,-2.42535 0.641,-4.64785 0.7233,-4.93889 0.329,-1.16181 1.2578,-11.947351 1.2588,-14.616781 7e-4,-1.56515 -0.2401,-4.51259 -0.5349,-6.54989 -0.2948,-2.03729 -0.539,-4.58238 -0.5425,-5.65575 0,-1.07338 -0.247,-2.81962 -0.541,-3.88055 -0.294,-1.06093 -1.0157,-3.80394 -1.6039,-6.09557 -0.7992,-3.11398 -1.7348,-5.509 -3.7031,-9.48015 -1.4485,-2.92245 -3.108,-6.01637 -3.6878,-6.87538 -0.5797,-0.85902 -1.054,-1.64435 -1.054,-1.74519 0,-0.10083 -0.5158,-0.92631 -1.1461,-1.83439 -0.6303,-0.90809 -1.3161,-1.96856 -1.5238,-2.35662 -2.1138,-3.94798 -3.5438,-6.18615 -6.011,-9.40785 -0.9909,-1.29398 -2.5705,-3.67532 -3.5102,-5.29187 -0.9397,-1.61654 -1.9149,-3.06612 -2.1671,-3.22128 -0.2522,-0.15516 -0.4585,-0.44235 -0.4585,-0.63819 0,-0.19584 -0.9922,-1.6277 -2.2049,-3.18191 -1.2126,-1.5542 -2.6518,-3.41014 -3.198,-4.12431 -0.5463,-0.71416 -1.6575,-2.05039 -2.4695,-2.96939 -0.8119,-0.919 -2.0318,-2.3276 -2.7109,-3.13022 -3.6566,-4.32172 -10.0471,-9.34806 -14.5198,-11.42026 -0.9209,-0.42666 -2.3833,-1.3567 -3.2499,-2.06676 -0.8665,-0.71006 -1.7382,-1.29102 -1.9371,-1.29102 -0.1988,0 -0.569,-0.29574 -0.8225,-0.6572 -0.7319,-1.04335 -6.6691,-6.39101 -8.2221,-7.4056 -0.7761,-0.50704 -2.5224,-1.73282 -3.8806,-2.72394 -2.658,-1.93964 -9.8574,-5.28174 -13.5819,-6.30499 -1.2612,-0.34648 -4.595,-1.34727 -7.4084,-2.22398 -6.441,-2.00715 -12.498,-2.79311 -25.2236,-3.27308 -11.5723,-0.43646 -17.7169,-0.15342 -23.4597,1.08061 -1.6492,0.3544 -4.5067,0.75264 -6.35,0.88499 -5.443,0.39081 -10.7221,1.87679 -16.5806,4.66711 -1.6492,0.78551 -3.7227,1.66869 -4.6078,1.96263 -3.069,1.01917 -15.3648,7.28682 -16.3857,8.35241 -0.5559,0.58021 -1.1318,1.05493 -1.2798,1.05493 -0.5535,0 -3.3692,2.14359 -5.2433,3.99176 -2.5586,2.52319 -6.6993,6.9438 -11.8574,12.65893 -3.0714,3.40304 -11.0732,14.76948 -11.0732,15.72929 0,0.2356 -0.1431,0.42836 -0.318,0.42836 -0.5681,0 -4.9561,8.62533 -8.5248,16.75694 -1.1921,2.71639 -2.4826,5.65327 -2.8677,6.52639 -0.3852,0.87313 -0.835,1.905 -0.9997,2.29306 -0.4254,1.00227 -2.4954,7.20313 -2.8264,8.46666 -0.1524,0.58209 -1.0135,3.43959 -1.9135,6.35 -1.4212,4.59609 -2.5285,9.82022 -2.8412,13.40555 -0.1513,1.73427 -0.5397,6.47822 -0.8176,9.98477 -0.7969,10.057751 0.1463,21.622521 2.4548,30.097961 1.7419,6.395 6.8902,20.70378 8.2353,22.88811 0.4182,0.67909 1.1087,1.94909 1.5346,2.82222 0.8991,1.84327 0.9314,1.89515 3.9325,6.33104 3.0133,4.45398 7.6712,10.11328 11.1253,13.51739 0.9702,0.95609 2.9928,2.94484 4.4949,4.41946 l 2.7309,2.68112 0.9989,-0.95703 c 0.5502,-0.5271 1.2746,-1.83149 1.6126,-2.90367 0.8355,-2.65065 3.5117,-6.94663 5.9221,-9.50637 1.0962,-1.16416 2.351,-2.57203 2.7885,-3.12859 0.4375,-0.55656 1.6026,-1.54468 2.5891,-2.19582 0.9865,-0.65114 2.4286,-1.65068 3.2047,-2.2212 0.7761,-0.57052 3.2045,-1.96365 5.3964,-3.09584 2.192,-1.1322 4.2557,-2.30488 4.5862,-2.60596 0.3304,-0.30108 1.3151,-0.80288 2.1882,-1.11512 1.4965,-0.53515 5.1376,-1.91132 10.7598,-4.0667 2.1529,-0.82536 4.0681,-1.94358 9.0569,-5.28807 0.6455,-0.43271 2.3642,-1.37325 3.8194,-2.0901 2.4896,-1.22637 2.823,-1.2987 5.6445,-1.22452 3.5093,0.0923 4.568,0.64869 7.2844,3.82829 3.3509,3.9222 4.4769,6.04283 5.0153,9.4453 0.6148,3.88504 0.665,5.02248 0.4125,9.34861 -0.4377,7.49721 -4.6719,21.09416 -8.1228,26.08405 -0.3437,0.4969 -1.9462,2.88783 -3.5612,5.3131802 -1.615,2.42534 -3.7117,5.5732599 -4.6594,6.9953699 -0.9477,1.4221 -2.4996,3.40648001 -3.4487,4.40972 -0.9492,1.00324 -1.7289,1.9225 -1.7327,2.04281 0,0.1203 0.7472,0.40961 1.6688,0.6429 0.9217,0.23329 2.7076,0.74803 3.9688,1.14386 4.396,1.37972 8.8072,2.35453 11.7136,2.58856 1.6097,0.12962 4.9883,0.70283 7.508,1.27381 3.087,0.6994899 6.3594,1.1511499 10.0319,1.3846099 2.9978,0.19056 5.494,0.3899 5.547,0.44298 0.053,0.0531 3.0794,0.0705 6.7251,0.0388 5.4733,-0.0476 7.5069,-0.21949 11.6683,-0.98607 z m -4.2821,-47.22945 c -1.8011,-1.64461 -2.6152,-6.76436 -1.781,-11.20069 0.2371,-1.26118 0.3111,-2.4193 0.1645,-2.57359 -0.6678,-0.70261 -5.5268,-0.66817 -12.0776,0.0856 -3.7505,0.43154 -7.153,0.84757 -7.5612,0.9245 -0.5625,0.10603 -0.929,0.7095 -1.5148,2.49377 -0.9464,2.88296 -2.3578,5.91619 -3.0013,6.45032 -0.8823,0.73218 -4.4238,1.47407 -5.1588,1.08069 -0.7719,-0.41313 -0.7573,-0.46971 1.2096,-4.66292 1.695,-3.61368 2.3084,-6.20198 1.5998,-6.75038 -1.1607,-0.89833 -1.774,-2.33407 -1.537,-3.5978 0.1606,-0.85563 0.074,-1.42634 -0.2809,-1.84276 -0.8,-0.93996 -2.9037,-5.02963 -3.4271,-6.66245 -0.5599,-1.74666 -0.3601,-2.44577 0.8576,-3.00058 1.375,-0.62647 3.0776,0.34193 4.2679,2.42743 0.5316,0.9314 1.6627,2.75941 2.5136,4.06225 1.913,2.92922 2.3135,3.03727 8.9177,2.40536 6.9103,-0.66121 12.9493,-0.83409 15.1468,-0.43361 1.0547,0.19221 2.1204,0.27169 2.3681,0.17661 0.2478,-0.0951 0.7758,-1.07095 1.1734,-2.16862 1.129,-3.11693 2.2089,-4.74345 4.7618,-7.17178 3.3837,-3.21857 6.1017,1.75375 3.081,5.63633 -1.0043,1.29092 -3.2478,5.63162 -3.2478,6.28395 0,0.18618 0.3175,0.96126 0.7056,1.72241 0.388,0.76115 0.7055,1.67008 0.7055,2.01984 0,0.6827 -2.0183,2.71521 -2.7132,2.73232 -0.6532,0.0161 -0.8633,0.57771 -1.1905,3.18345 -0.2319,1.84699 -0.1765,2.86164 0.2344,4.29674 0.6739,2.35327 0.6512,3.41375 -0.091,4.23351 -0.843,0.93151 -3.0281,0.85212 -4.1254,-0.14989 z m -24.6151,-22.04861 c -0.4389,-0.55953 -0.4264,-0.57201 0.1332,-0.1332 0.5876,0.46086 0.7745,0.75056 0.4841,0.75056 -0.073,0 -0.3511,-0.27781 -0.6173,-0.61736 z m 32.3342,-33.70167 c -1.1651,-0.65989 -1.4513,-1.04729 -1.6991,-2.30032 -0.2865,-1.44911 -0.2329,-1.58905 1.4011,-3.65601 2.8352,-3.586371 8.3306,-9.470541 9.5505,-10.226181 0.6318,-0.39132 1.0746,-0.83144 0.984,-0.97804 -0.091,-0.14659 -1.1879,-0.5435 -2.4385,-0.88203 -2.6697,-0.72264 -3.5738,-1.57592 -3.8906,-3.67193 -0.2292,-1.51568 -0.2115,-1.54844 1.9826,-3.66276 3.5964,-3.46576 9.982,-7.39307 14.4708,-8.89991 4.7058,-1.57966 11.8986,-2.72938 17.3764,-2.77746 4.5955,-0.0403 5.2972,0.0468 10.0948,1.25276 5.4731,1.37585 8.1721,2.40944 10.6208,4.06733 0.8302,0.56204 2.3031,1.39398 3.2732,1.84875 3.0835,1.44544 4.7625,3.24103 4.7625,5.09309 0,1.27143 -2.7997,3.58876 -4.6793,3.87301 -2.7319,0.41315 -2.7357,0.6263 -0.056,3.17906 1.3434,1.27991 3.0033,2.5988 3.6885,2.93089 1.2037,0.58328 3.7297,3.56073 3.6577,4.31124 -0.019,0.20214 -0.059,0.74318 -0.088,1.20229 -0.034,0.53731 -0.6303,1.28457 -1.6733,2.097171 -1.6084,1.25313 -1.6415,1.26133 -4.4979,1.11367 -15.857,-0.81975 -23.2905,-0.96643 -29.2955,-0.57806 -6.0689,0.39251 -15.5965,1.83005 -19.9723,3.01348 -3.0003,0.81141 -7.6086,2.65452 -9.003,3.60078 -1.5611,1.05936 -2.7625,1.07229 -4.5689,0.0492 z m 17.6936,-11.565171 c 2.2927,-0.40075 5.5973,-0.9578 7.3436,-1.23788 4.6445,-0.74493 18.5822,-1.03175 25.8815,-0.5326 3.3693,0.2304 6.2097,0.33517 6.3121,0.23282 0.3485,-0.34854 -0.7927,-1.3745 -2.2455,-2.01865 -0.797,-0.35337 -2.6214,-0.88911 -4.0543,-1.19053 -1.4329,-0.30142 -3.1213,-0.8993 -3.752,-1.32864 -0.9755,-0.66405 -1.1471,-0.99393 -1.1492,-2.20935 0,-0.78581 -0.1771,-1.60348 -0.3907,-1.81704 -0.2825,-0.28254 -0.1624,-0.45692 0.441,-0.64027 0.4561,-0.13859 1.1504,-0.54502 1.5429,-0.90318 0.4507,-0.41131 1.9452,-0.86171 4.0569,-1.22261 1.8389,-0.31428 3.4691,-0.69229 3.6228,-0.84003 0.518,-0.49804 -4.3416,-2.55092 -7.9688,-3.36624 -6.0811,-1.36695 -8.5813,-1.68383 -11.287,-1.43057 -4.7318,0.4429 -12.3968,1.98473 -14.9508,3.0074 -2.581,1.03348 -7.1715,3.72533 -7.1715,4.20535 0,0.3491 3.9525,1.43733 5.2204,1.43733 1.0036,0 2.221,1.05387 3.1644,2.73934 0.3683,0.6579 0.3552,0.97721 -0.074,1.80736 -0.2868,0.55456 -0.4209,1.1088 -0.298,1.23164 0.3265,0.32657 -2.0366,2.33555 -2.7474,2.33555 -1.1066,0 -5.1741,1.40535 -5.619,1.94139 -0.5422,0.65332 -0.8475,0.66818 4.1227,-0.20059 z m -114.2722,7.251071 c -0.9944,-0.55923 -2.0329,-2.17749 -2.0329,-3.167801 0,-0.78481 1.1625,-2.27276 4.1387,-5.29766 1.6021,-1.62831 2.4123,-2.69526 2.1634,-2.84906 -0.6727,-0.41575 -7.3222,-1.16697 -8.5565,-0.96667 -1.6935,0.27482 -3.619,-1.46538 -3.9322,-3.55371 -0.2003,-1.33593 -0.1106,-1.63426 0.7752,-2.57618 1.4588,-1.55142 5.952,-4.45629 9.3435,-6.04064 6.7415,-3.14937 19.8623,-6.5238 29.6926,-7.63639 8.2338,-0.93191 20.4882,0.56369 28.817,3.517 3.855,1.36693 7.973,3.64361 8.4385,4.66526 0.5706,1.25236 -0.1,3.37326 -1.4167,4.48128 -0.9587,0.80668 -1.3875,0.9077 -3.853,0.9077 -1.5259,0 -2.8726,0.159 -2.9928,0.35333 -0.1201,0.19433 0.2591,0.78965 0.8426,1.32292 1.4376,1.31376 2.1805,3.19378 1.9131,4.84156 -0.3038,1.8719 -2.9007,4.326 -4.8543,4.58736 -0.7858,0.10513 -6.4294,0.14979 -12.5413,0.0992 -9.0558,-0.0749 -11.9939,0.0248 -15.875,0.53878 -2.6194,0.34688 -6.7469,0.88074 -9.1722,1.18634 -6.6517,0.83814 -10.4696,1.91844 -14.2308,4.026701 -3.573,2.00272 -5.2025,2.38418 -6.6669,1.56064 z m 27.0713,-13.283811 c 7.6288,-0.98455 14.1308,-1.31096 18.1681,-0.91205 3.6304,0.35872 8.3592,0.16086 8.8921,-0.37207 0.3562,-0.35615 -1.3546,-1.55156 -2.8881,-2.01804 -1.5731,-0.47852 -2.8289,-1.67851 -3.2004,-3.05805 -0.3724,-1.38311 -0.1342,-2.24487 0.9716,-3.51521 0.4494,-0.51619 0.4336,-0.60717 -0.1335,-0.76946 -2.7886,-0.798 -5.6912,-1.05726 -11.932,-1.06575 -7.3232,-0.01 -8.6458,0.17534 -18.8736,2.64433 -2.6599,0.64209 -12.3473,3.9089 -12.3473,4.16379 0,0.46785 4.9044,1.50151 6.758,1.42431 1.0368,-0.0432 2.1576,-0.0588 2.4907,-0.0348 0.9192,0.0664 3.0986,2.42132 3.0986,3.34813 0,1.39963 -0.501,1.39045 8.9958,0.16481 z m 79.1986,-25.67306 c -2.4422,-1.29213 -5.6428,-4.80607 -6.9215,-7.59932 -1.4302,-3.12394 -1.5401,-6.1348 -0.2702,-7.40471 0.4973,-0.49729 0.6639,-0.50581 1.3319,-0.0681 1.4681,0.96193 3.386,3.1296 4.3543,4.92133 1.2207,2.2586 3.2992,4.48569 4.1849,4.48395 1.3287,-0.002 3.3662,-1.60287 9.4227,-7.40085 1.5166,-1.45182 3.7722,-4.07119 5.0125,-5.82083 1.2403,-1.74964 2.9014,-3.79355 3.6914,-4.54202 0.79,-0.74847 2.504,-2.8012 3.8089,-4.56162 1.3049,-1.76042 3.6857,-4.95803 5.2907,-7.10581 1.6049,-2.14778 3.2986,-4.70139 3.7637,-5.67469 0.9061,-1.89624 2.3825,-3.69842 3.0299,-3.69842 0.7492,0 2.3363,1.94106 2.5786,3.15377 0.3212,1.6073 -1.1221,4.61956 -4.0047,8.35848 -1.1768,1.52639 -2.6627,3.569 -3.302,4.53914 -1.3511,2.05024 -6.3796,8.44404 -8.4781,10.78014 -0.7944,0.88436 -2.117,2.55124 -2.9391,3.70417 -1.3406,1.8801 -7.7708,8.553 -10.4997,10.89591 -0.5821,0.49975 -1.4955,1.33098 -2.0297,1.84717 -0.6498,0.62782 -1.7009,1.0914 -3.175,1.4003 -2.8557,0.59841 -3.3668,0.5765 -4.8495,-0.20797 z m -60.5014,-10.03231 c -2.9155,-0.95326 -4.9032,-1.93979 -9.2759,-4.60369 -1.7762,-1.08212 -3.8289,-2.29988 -4.5615,-2.70612 -5.4472,-3.02052 -9.0447,-5.43182 -11.5272,-7.72621 -1.5746,-1.45521 -3.9729,-3.50734 -5.3297,-4.5603 -3.7912,-2.94233 -13.1731,-12.06086 -13.2671,-12.89482 -0.216,-1.91452 0.9448,-2.99231 3.2156,-2.98565 2.2391,0.007 1.9666,-0.18804 10.5894,7.56438 1.5107,1.3582 3.1195,2.74529 3.5752,3.08244 2.8272,2.09193 4.2647,3.28643 6.3418,5.27003 1.2861,1.22819 3.7468,3.04173 5.4681,4.03008 1.7213,0.98836 4.7172,2.72514 6.6574,3.85953 1.9403,1.13438 4.051,2.33588 4.6905,2.67 0.6394,0.33412 1.3538,0.75781 1.5875,0.94155 0.7226,0.56824 4.4219,1.58787 4.9816,1.37309 0.2916,-0.11188 1.0256,-0.88554 1.6313,-1.71924 1.1479,-1.58027 4.9244,-7.86272 4.9244,-8.19213 0,-0.33577 2.4491,-4.0292 2.8264,-4.26236 0.2008,-0.12411 0.8488,-0.0155 1.44,0.24123 1.0103,0.43884 1.0681,0.56781 0.9619,2.14672 -0.08,1.18137 0.01,1.63241 0.3028,1.52004 1.4907,-0.57287 -4.2577,11.69335 -6.9991,14.93507 -2.5945,3.06796 -3.9796,3.40717 -8.2334,2.01636 z m -29.0769,153.5654711 c 2.4825,-0.8147 5.97,-2.80054 5.97,-3.39944 0,-0.25015 0.148,-0.45483 0.329,-0.45483 0.1809,0 0.4257,-0.30466 0.5439,-0.67703 0.1434,-0.45177 0.6745,-0.75469 1.5963,-0.91043 1.8598,-0.31422 4.9145,-3.40724 8.1876,-8.29032 1.3656,-2.0372899 2.9396,-4.2826301 3.4978,-4.9896501 0.5581,-0.70702 1.0148,-1.3923 1.0148,-1.52285 0,-0.13054 0.3969,-0.75768 0.882,-1.39364 0.485,-0.63596 0.8819,-1.28755 0.8819,-1.44799 0,-0.16044 0.218,-0.54232 0.4844,-0.84864 0.5819,-0.66911 3.2823,-5.85394 4.3322,-8.31806 1.1719,-2.75014 2.1186,-5.92826 3.3629,-11.28889 2.1716,-9.3549 1.4089,-16.04908 -2.3008,-20.19653 -0.5405,-0.60428 -1.0953,-0.79362 -2.3242,-0.7932 -1.8651,7e-4 -2.2968,0.20954 -8.748,4.23278 -5.002,3.1195 -6.3667,3.77364 -11.819,5.66526 -5.8851,2.04178 -15.7176,7.29303 -19.6757,10.50826 -2.8906,2.34803 -7.8171,8.00695 -9.0581,10.40486 -0.2853,0.55108 -0.4301,1.2326 -0.322,1.51448 0.1082,0.28188 -0.3695,1.68935 -1.0615,3.12772 -1.3925,2.89454 -1.9889,6.52616 -1.9117,11.6419302 0.1,6.6120299 2.9789,12.9453499 7.0548,15.5183499 4.2229,2.66576 13.8548,3.63376 19.0834,1.91786 z m 130.5005,-5.66096 c 2.8115,-1.07369999 3.1395,-1.26241999 6.9781,-4.01414 5.7303,-4.10786 9.6518,-11.6511901 9.72,-18.6972301 0.06,-6.19293 -2.6473,-14.2269 -6.5976,-19.57916 -0.7877,-1.06716 -2.8891,-3.3812 -4.6698,-5.14232 -3.021,-2.98765 -3.4115,-3.25461 -5.8335,-3.98709 -5.2048,-1.5741 -10.2706,-3.41137 -14.2374,-5.16364 -3.2227,-1.42351 -10.0794,-1.73998 -16.5231,-0.76261 -3.8195,0.57935 -4.5599,1.01757 -6.066,3.59038 -2.8447,4.85954 -2.7176,10.29153 0.3634,15.52222 1.6919,2.87257 3.9918,6.03116 5.7333,7.87403 0.2425,0.25666 0.441,0.58412 0.441,0.72771 0,0.14358 0.2778,0.5688 0.6173,0.94494 0.3396,0.37613 0.8013,1.16013 1.0261,1.74221 0.2248,0.58208 0.964,2.40771 1.6426,4.05695 0.6786,1.64923 1.4289,3.95111 1.6673,5.11527 1.5166,7.4055202 4.2037,12.8886101 7.2311,14.75526011 6.4619,3.98427999 7.9302,4.47095999 12.6864,4.20513999 2.3224,-0.12981 3.8855,-0.44881 5.8208,-1.18792 z"
       id="path1104"
       inkscape:connector-curvature="0" />
  </g>
</svg>
