<?xml version="1.0" encoding="UTF-8" standalone="no"?>
<!-- Created with Inkscape (http://www.inkscape.org/) -->

<svg
   xmlns:dc="http://purl.org/dc/elements/1.1/"
   xmlns:cc="http://creativecommons.org/ns#"
   xmlns:rdf="http://www.w3.org/1999/02/22-rdf-syntax-ns#"
   xmlns:svg="http://www.w3.org/2000/svg"
   xmlns="http://www.w3.org/2000/svg"
   xmlns:sodipodi="http://sodipodi.sourceforge.net/DTD/sodipodi-0.dtd"
   xmlns:inkscape="http://www.inkscape.org/namespaces/inkscape"
   width="270.39963mm"
   height="235.70987mm"
   viewBox="0 0 270.39963 235.70987"
   version="1.1"
   id="svg8"
   inkscape:version="0.92.5 (2060ec1f9f, 2020-04-08)"
   sodipodi:docname="e_10.svg">
  <defs
     id="defs2" />
  <sodipodi:namedview
     id="base"
     pagecolor="#ffffff"
     bordercolor="#666666"
     borderopacity="1.0"
     inkscape:pageopacity="0.0"
     inkscape:pageshadow="2"
     inkscape:zoom="0.061871844"
     inkscape:cx="3735.6565"
     inkscape:cy="356.69356"
     inkscape:document-units="mm"
     inkscape:current-layer="layer1"
     showgrid="false"
     inkscape:window-width="1920"
     inkscape:window-height="1029"
     inkscape:window-x="0"
     inkscape:window-y="0"
     inkscape:window-maximized="1"
     fit-margin-top="0"
     fit-margin-left="0"
     fit-margin-right="0"
     fit-margin-bottom="0"
     inkscape:showpageshadow="false" />
  <metadata
     id="metadata5">
    <rdf:RDF>
      <cc:Work
         rdf:about="">
        <dc:format>image/svg+xml</dc:format>
        <dc:type
           rdf:resource="http://purl.org/dc/dcmitype/StillImage" />
        <dc:title></dc:title>
      </cc:Work>
    </rdf:RDF>
  </metadata>
  <g
     inkscape:label="Calque 1"
     inkscape:groupmode="layer"
     id="layer1"
     transform="translate(2757.9387,228.26688)">
    <path
       style="fill:#000000;stroke-width:0.35277778"
       d="m -2598.1034,7.2126451 c -0.485,-0.19922 -2.8663,-0.4077 -5.2916,-0.46327 -3.2048,-0.0734 -5.0842,-0.30183 -6.8781,-0.83586 -1.6098,-0.47923 -3.4558,-0.7348 -5.3076,-0.7348 -1.8386,0 -4.0147,-0.29897 -6.1747,-0.84833 -3.6543,-0.92942 -6.7617,-1.16922 -19.2105,-1.4825 -12.105,-0.30464 -13.7088,-0.37234 -14.2875,-0.60316 -1.2886,-0.51404 -4.9937,-1.30708003 -5.28,-1.13016 -0.1736,0.10731 -0.4154,0.0338 -0.5372,-0.16343003 -0.1219,-0.19719 -0.6979,-0.35853 -1.28,-0.35853 -0.582,0 -0.9778,-0.13032 -0.8793,-0.28958 0.3234,-0.52336 -13.205,-4.83833997 -14.3485,-4.57655997 -0.236,0.054 -1.551,-0.28386 -2.9222,-0.75086 -2.3729,-0.80817 -2.5488,-0.82132 -3.648,-0.27296 -3.6678,1.82977 -17.1412,-1.28592 -22.7867,-5.2694101 -0.7761,-0.54763 -3.6578,-2.50736 -6.4037,-4.35496 -10.752,-7.2345 -19.0243,-15.3071 -25.9724,-25.34536 -4.3212,-6.24308 -5.0491,-7.71145 -11.5596,-23.31643 -2.0565,-4.92926 -2.9511,-7.41973 -3.696,-10.28913 -0.8905,-3.43075 -2.6881,-16.21338 -3.1708,-22.54855 -0.6338,-8.317815 0.2767,-21.178555 2.0981,-29.633425 0.2717,-1.26118 0.7657,-3.88055 1.0978,-5.82083 0.3321,-1.94028 0.8111,-4.0834 1.0645,-4.7625 0.2533,-0.6791 0.714,-2.42535 1.0236,-3.88056 0.7819,-3.67462 3.6208,-12.47952 4.7772,-14.81666 0.5281,-1.06716 1.469,-2.87798 2.0909,-4.02405 0.6219,-1.14607 1.5817,-3.20982 2.1329,-4.58611 0.9591,-2.39498 5.7863,-12.04904 7.6897,-15.37873 1.6308,-2.85291 6.465,-8.95597 8.5597,-10.80627 1.1272,-0.99574 2.9454,-2.81444 4.0403,-4.04155 1.9575,-2.19377 3.325,-3.29254 5.8716,-4.71758 4.6767,-2.61709 6.3659,-3.71249 8.5406,-5.53849 2.3867,-2.00389 4.3215,-3.20404 9.0475,-5.61193 1.2612,-0.64257 3.3785,-1.8922 4.7052,-2.77694 2.981,-1.98801 2.8904,-1.93551 4.8198,-2.79532 4.3573,-1.94172 5.7545,-2.4829 9.1723,-3.55268 2.0372,-0.63768 4.6566,-1.52153 5.8208,-1.96411 1.1642,-0.44257 2.5135,-0.91894 2.9986,-1.05859 0.4851,-0.13965 1.3582,-0.45028 1.9403,-0.69028 3.3112,-1.36527 9.0622,-2.80535 14.1198,-3.53571 2.1295,-0.30751 5.0625,-0.82714 6.5177,-1.15474 2.8468,-0.64088 11.2299,-0.78616 25.7528,-0.44629 3.9775,0.0931 12.3119,0.0386 18.5208,-0.12115 13.7285,-0.35314 16.3837,-0.14652 32.9847,2.56673 2.4254,0.3964 6.2354,0.86029 8.4667,1.03087 4.036,0.30855 4.0824,0.32241 8.9958,2.6889 9.3899,4.52253 11.2998,5.3954 13.9347,6.36868 1.4552,0.53751 2.8965,1.19323 3.2028,1.45715 0.3063,0.26392 0.6746,0.47985 0.8184,0.47985 0.4329,0 3.3622,2.06967 6.9149,4.88564 4.0829,3.23616 13.4416,12.72229 15.8883,16.10464 2.3929,3.30788 5.0024,7.42054 5.9365,9.35602 0.4194,0.86905 1.0004,1.97697 1.2911,2.46204 0.7347,1.22588 2.3525,4.90689 3.721,8.46666 0.6341,1.64924 1.2846,3.14943 1.4455,3.33375 0.161,0.18433 0.2926,0.63806 0.2926,1.0083 0,0.37023 0.7927,1.85831 1.7616,3.30683 3.0315,4.5325 4.9872,9.6668 6.6943,17.57473 0.4188,1.94028 0.9802,4.32153 1.2474,5.29167 1.1357,4.12225 2.3463,9.84982 2.8041,13.26583 0.2703,2.01713 0.702,4.85813 0.9594,6.31334 0.6704,3.79045 0.5432,20.76215 -0.2089,27.869435 -0.8971,8.47751 -1.8713,14.5283 -3.2076,19.92368 -2.3248,9.38597 -2.9079,11.04909 -6.1874,17.64716 -4.2177,8.48558 -4.9675,9.6221 -9.5004,14.39926 -1.071,1.12863 -1.995,2.18494 -2.0535,2.34738 -0.2222,0.61728 -16.2341,15.55826 -18.5909,17.34745 -0.5821,0.4419 -2.3914,2.03994 -4.0206,3.55121 -1.6292,1.51126 -3.1229,2.74775 -3.3193,2.74775 -0.1964,0 -1.1653,0.60908 -2.153,1.35351 -0.9878,0.74442 -2.1832,1.55983 -2.6565,1.81201 -0.4732,0.25218 -2.2369,1.53253 -3.9193,2.84522 -1.6824,1.3126902 -3.5515,2.6414602 -4.1536,2.9528302 -0.6021,0.3113599 -2.1722,1.3745399 -3.489,2.3626199 -2.6779,2.00938 -6.5512,4.05380997 -9.9425,5.24798997 -1.2411,0.43704 -3.3258,1.23552003 -4.6327,1.77442003 -5.933,2.44657 -16.8339,4.55114 -23.6968,4.57497 -1.1061,0.004 -2.773,0.15412 -3.7042,0.33395 -3.2037,0.61871 -3.8122,0.65708 -4.6917,0.29586 z m 7.4084,-6.94607003 c 1.2611,-0.17602 3.4976,-0.33631 4.9698,-0.35621 1.4723,-0.0199 4.0123,-0.27118 5.6445,-0.55843 1.6322,-0.28724 3.7614,-0.52357997 4.7315,-0.52520997 3.7434,-0.006 10.3642,-2.22938 14.6403,-4.91589 0.8731,-0.54855 2.4091,-1.2627599 3.4133,-1.5871399 1.829,-0.59081 2.6782,-1.15105 10.7621,-7.0994402 2.39,-1.75864 5.3483,-3.78398 6.574,-4.50077 2.0206,-1.18157 3.9293,-2.72592 6.4041,-5.18153 0.4908,-0.48696 1.7654,-1.59533 2.8326,-2.46305 1.0671,-0.86772 2.1784,-1.82015 2.4694,-2.1165 0.2911,-0.29635 1.8786,-1.66893 3.5278,-3.05017 6.0569,-5.07268 16.0903,-15.63715 16.853,-17.74499 0.1097,-0.30307 0.6324,-1.05371 1.1615,-1.66809 2.0005,-2.32252 6.5671,-12.47844 7.6942,-17.11136 3.5444,-14.56998 4.6184,-23.63131 4.6786,-39.473185 0.033,-8.73702 0.028,-8.80025 -1.8292,-21.84978 -0.2071,-1.45521 -0.9204,-4.86834 -1.5852,-7.58473 -0.6647,-2.71638 -1.5912,-6.68513 -2.0589,-8.81944 -1.503,-6.85918 -1.8164,-7.64674 -3.4392,-8.64306 -1.7147,-1.05271 -2.576,-2.60616 -3.2577,-5.87573 -1.2046,-5.77704 -8.2558,-20.0146 -13.0765,-26.40343 -1.0248,-1.3582 -4.9835,-5.59668 -8.7971,-9.41885 -8.3018,-8.32044 -10.7456,-10.08152 -19.5047,-14.05562 -3.4033,-1.54411 -6.2549,-2.80748 -6.3368,-2.80748 -0.082,0 -1.7732,-0.8121 -3.7582,-1.80466 -4.4401,-2.22021 -4.7567,-2.31653 -9.7827,-2.97604 -2.2313,-0.29279 -6.9931,-1.01033 -10.5817,-1.59452 -12.2482,-1.99389 -15.2105,-2.19907 -27.5183,-1.90596 -15.6212,0.37202 -16.1454,0.37396 -22.0486,0.0817 -15.8065,-0.78264 -15.256,-0.80483 -23.6361,0.95285 -1.3582,0.28487 -3.0832,0.52379 -3.8334,0.53092 -2.826,0.0269 -11.6257,2.39522 -19.0972,5.13984 -3.4964,1.28439 -5.6947,2.0709 -7.0555,2.52428 -1.3624,0.45392 -8.8112,4.46039 -9.7014,5.21806 -0.291,0.24772 -2.2754,1.27405 -4.4097,2.28074 -2.1343,1.00669 -4.0553,1.93884 -4.2688,2.07145 -1.8301,1.13662 -3.3159,2.23554 -3.3159,2.45246 0,0.14423 -0.4661,0.46855 -1.0358,0.72071 -1.4262,0.63131 -6.6697,5.87344 -7.9601,7.95809 l -1.0583,1.70974 -2.0653,-0.18442 -2.0654,-0.18443 -3.3604,3.40947 c -5.0964,5.17083 -8.6719,9.93824 -11.2881,15.05114 -0.5957,1.16417 -1.4158,2.75167 -1.8225,3.52778 -1.653,3.15453 -8.0755,16.73546 -8.9254,18.87361 -0.9353,2.35309 -1.7819,5.10117 -3.0973,10.05417 -1.4264,5.37134 -1.744,6.71523 -2.2511,9.525 -0.2801,1.55222 -0.8238,4.4891 -1.2082,6.52639 -1.8044,9.56219 -2.1013,13.05715 -1.9924,23.45972 0.064,6.131925 0.2606,9.733195 0.6446,11.818055 0.3037,1.64923 0.7944,4.66548 1.0904,6.70277 0.296,2.0373 0.6831,4.18042 0.8604,4.7625 0.1772,0.58209 0.4214,1.79408 0.5426,2.69333 0.1829,1.35589 1.2785,4.381 2.9855,8.24278 0.1715,0.38806 1.1459,2.68994 2.1653,5.11528 4.4989,10.7035 4.4478,10.60514 9.202,17.73818 1.0958,1.64421 2.7627,3.76413 3.7041,4.71093 0.9415,0.94681 3.0611,3.21351 4.7104,5.03712 1.6492,1.82361 4.0638,4.16568 5.3657,5.20459 1.3019,1.03892 2.7519,2.24443 3.2223,2.67892 1.7465,1.61352 4.3818,3.52956 7.6397,5.55466 1.8433,1.14575 3.9985,2.56386 4.7895,3.15135 2.1111,1.56815 6.8591,3.66689 11.1292,4.91938 4.2317,1.24127 4.1897,1.23397 4.1897,0.72819 0,-0.20412 -0.4636,-0.53271 -1.0301,-0.73021 -0.5665,-0.19749 -1.1172,-0.58611 -1.2236,-0.86359 -0.1482,-0.38603 0.1559,-0.51106 1.2946,-0.53237 0.8185,-0.0153 1.2898,-0.10792 1.0473,-0.20578 -0.2426,-0.0979 -0.441,-0.33826 -0.441,-0.53421 0,-0.57166 2.3738,-0.14476 6.727,1.20975 2.218,0.69014 5.6886,1.60248 7.7126,2.02743 2.0239,0.42494 5.5164,1.3726302 7.7611,2.1059802 12.0791,3.9462599 14.589,4.4797299 22.4257,4.7665699 19.3118,0.70687 23.1331,1.01241 26.2015,2.09502 0.7327,0.25852 2.8365,0.57922 4.6751,0.71269 1.8385,0.13346997 4.6128,0.56392997 6.165,0.95656997 2.2984,0.58139 3.4771,0.67521 6.35,0.50544 1.9403,-0.11465 4.0834,-0.0584 4.7625,0.12498 0.6791,0.18338 1.7904,0.26196 2.4695,0.1746 0.6791,-0.0874 2.2666,-0.30285 3.5278,-0.47888 z m -34.3959,-24.72922007 c -0.7761,-0.15677 -2.6793,-0.49555 -4.2293,-0.75285 -2.8437,-0.47203 -4.9287,-1.53511 -7.2659,-3.70471 -0.9054,-0.84048 -1.736,-3.40663 -1.732,-5.35091 0,-1.78406 0.7853,-3.75915 1.9071,-4.81966 0.703,-0.66453 2.0163,-2.97829 3.5066,-6.17773 1.8949,-4.06827 2.7579,-5.49999 4.2161,-6.9948 2.4786,-2.54081 3.4318,-3.18231 5.6169,-3.78024 l 1.8611,-0.50928 4.0058,1.99224 c 3.1777,1.58038 4.2228,2.29098 5.0551,3.4373 1.397,1.92387 2.5054,4.40059 3.6665,8.19299 0.9174,2.99636 0.9427,3.28159 0.5926,6.68796 -0.3989,3.88192 -0.8714,5.09046 -2.8429,7.27269 -1.8498,2.04757 -3.516,2.99066 -6.6663,3.77337 -3.4854,0.86594 -5.8973,1.096 -7.6914,0.73363 z m 8.158,-6.89915 c 2.0786,-0.60426 2.7651,-1.33389 3.1268,-3.32338 0.5006,-2.75329 -1.6438,-9.30006 -3.84,-11.72335 -1.107,-1.2215 -4.0393,-3.09332 -4.8458,-3.09332 -1.1647,0 -3.1542,2.6592 -5.4627,7.30153 -1.7937,3.60715 -2.3569,5.11677 -2.5007,6.70296 l -0.1857,2.04726 1.4789,0.83118 c 1.467,0.82447 5.7733,1.69455 8.7794,1.77385 0.8433,0.0223 2.3957,-0.21028 3.4498,-0.51673 z m 78.449,-4.09066 c -1.9429,-0.5521 -3.4396,-1.91696 -4.4947,-4.09888 -0.9501,-1.96494 -0.9727,-2.15621 -0.9445,-8.01023 0.034,-7.07836 0.2803,-8.06655 3.6926,-14.81667 1.7491,-3.45996 2.852,-4.35461 5.5608,-4.511 1.2921,-0.0746 1.3018,-0.0648 1.4095,1.4242 0.08,1.09975 0.2602,1.4993 0.6779,1.4993 0.9452,0 3.4836,2.96093 4.1206,4.8066 0.3822,1.10713 0.6705,3.45977 0.8094,6.60403 0.2076,4.69891 0.1773,5.00679 -0.7973,8.11389 -1.5246,4.8605 -2.4144,6.14853 -5.7819,8.36905 -1.6598,1.09451 -2.2691,1.18331 -4.2524,0.61971 z m 4.6158,-10.34747 c 0.5297,-1.99089 0.7519,-3.88222 0.7559,-6.43299 0.01,-3.2292 -0.097,-3.82298 -0.9614,-5.58958 -1.1458,-2.34185 -1.3842,-2.23024 -2.7688,1.29586 -1.9885,5.06424 -1.7817,12.70227 0.3884,14.34956 0.9321,0.70756 1.7317,-0.41266 2.5859,-3.62285 z m -180.6582,-14.77322 c -1.6477,-1.12765 -2.7341,-2.68124 -3.1606,-4.5196 -0.6536,-2.81683 -1.3718,-11.34747 -1.0783,-12.80771 0.8485,-4.22192 3.5364,-9.35355 6.4182,-12.25362 0.3344,-0.33657 0.7548,-0.87417 0.9342,-1.19465 0.256,-0.45756 0.6097,-0.52949 1.6467,-0.33494 0.9964,0.18691 1.8824,0.8207 3.6086,2.58117 1.2583,1.28339 2.4978,2.66199 2.7542,3.06357 0.3837,0.60069 1.1641,5.24883 1.7132,10.20461 0.1575,1.42135 -0.3875,7.49593 -0.7915,8.82144 -0.1856,0.60877 -0.4391,1.71165 -0.5634,2.45083 -0.1364,0.8109 -0.7095,1.87912 -1.445,2.6932 -1.4122,1.56322 -3.1768,2.13645 -6.5766,2.13645 -1.7721,0 -2.4841,-0.17303 -3.4597,-0.84075 z m 6.3333,-5.59492 c 1.5398,-4.41707 0.8376,-15.01572 -1.1747,-17.72961 -0.4649,-0.62701 -0.5818,-0.64664 -1.0504,-0.17639 -0.9021,0.9052 -2.0314,4.29372 -2.2321,6.69731 -0.2425,2.90519 0.4335,9.24429 1.1293,10.58977 1.0435,2.01797 2.7308,2.33177 3.3279,0.61892 z m 163.7119,-3.83148 c -4.05,-1.07048 -6.1718,-2.26968 -7.3986,-4.18147 -2.2042,-3.43491 -2.5472,-6.13038 -1.1524,-9.05534 0.31,-0.6499 0.4739,-1.27123 0.3644,-1.38074 -0.1095,-0.10951 -3.5114,-0.28701 -7.5597,-0.39445 -7.337,-0.1947 -7.9384,-0.26041 -11.9468,-1.30522 -1.3209,-0.34428 -4.3052,-0.61264 -7.9375,-0.71375 -6.0288,-0.16783 -8.391,-0.50624 -11.5609,-1.65628 -2.1745,-0.78887 -5.1566,-2.25678 -6.4788,-3.18909 -1.112,-0.78402 -1.5652,-2.65754 -0.9628,-3.97971 0.4806,-1.05466 3.6883,-2.68236 5.2862,-2.68236 1.7645,0 13.5399,-6.506845 13.5399,-7.481875 0,-0.21067 -1.3946,-1.24594 -3.0992,-2.30061 -1.7046,-1.05467 -3.8573,-2.67572 -4.7839,-3.60232 -1.7688,-1.7688 -5.9006,-7.77723 -7.4134,-10.78047 -0.4886,-0.97014 -1.105,-2.02386 -1.3696,-2.34159 -0.3174,-0.38103 -0.4448,-1.27465 -0.3742,-2.62487 0.1053,-2.01493 0.1264,-2.05209 1.3417,-2.36033 0.6791,-0.17224 1.3855,-0.45949 1.5699,-0.63832 0.557,-0.54042 1.2294,-0.3746 2.7763,0.68463 3.5002,2.39686 8.9405,4.27557 16.9969,5.86959 7.2086,1.42629 9.0791,1.61252 16.2649,1.61933 8.5772,0.008 11.8045,-0.57415 24.7391,-4.46333 5.4714,-1.64512 11.9194,-4.86718 14.6477,-7.31933 1.3373,-1.20204 4.7186,-2.34841 5.5007,-1.865 0.457,0.28239 1.1081,2.49344 1.1109,3.77183 0,0.50376 -0.2189,1.37689 -0.4888,1.94027 -0.2698,0.56339 -0.7808,1.65934 -1.1355,2.43545 -0.742,1.62371 -2.3676,4.12082 -3.6579,5.61886 -1.8268,2.12105 -5.8868,6.37689 -7.5713,7.9367 -2.9237,2.70714 -4.7398,4.7505 -4.5275,5.09401 0.2976,0.4816 8.0175,-0.018 10.5038,-0.67971 1.1641,-0.30986 3.7546,-1.34452 5.7566,-2.29926 2.0019,-0.95473 4.0785,-1.73587 4.6147,-1.73587 1.3753,0 1.9539,1.22447 1.7074,3.61313 -0.2432,2.35562 -2.1755,5.40441 -5.6147,8.85878 -1.3239,1.32976 -2.4071,2.491895 -2.4071,2.582535 0,0.0906 0.6182,0.90766 1.3738,1.81559 1.6544,1.98789 3.2517,5.07919 3.2882,6.3637 0.041,1.42502 -0.3523,2.42168 -2.2847,5.79622 -2.2523,3.9334 -6.341,7.70798 -9.5252,8.79353 -0.6283,0.2142 -2.248,1.10616 -3.5993,1.98213 -1.3513,0.87597 -3.5738,1.94922 -4.9389,2.38499 -1.3651,0.43577 -3.5768,1.20179 -4.915,1.70224 -2.9221,1.09286 -5.0258,1.13352 -8.6794,0.16778 z m 10.9361,-7.47437 c 2.0373,-0.78529 4.6621,-2.01332 5.833,-2.72894 1.1709,-0.71563 2.7584,-1.51994 3.5278,-1.78735 1.5155,-0.52674 5.9753,-4.71103 6.8583,-6.43469 0.4628,-0.90334 0.4454,-1.12382 -0.1806,-2.29305 -0.8401,-1.5689 -2.4549,-2.41872 -5.2114,-2.74246 -1.7315,-0.20336 -2.1964,-0.13193 -2.9986,0.46079 -1.3147,0.97139 -7.0313,3.9859 -7.5666,3.99011 -0.2411,0.002 -1.2844,0.39733 -2.3186,0.87875 -1.0341,0.48142 -3.5893,1.22157 -5.6782,1.64477 -3.3878,0.68637 -3.8423,0.86767 -4.2089,1.67889 -0.5234,1.15813 -1.185,2.26754 -1.7795,2.98388 -0.5999,0.72281 -0.2605,2.0908 0.763,3.07481 1.5438,1.48438 6.6686,3.25296 8.3742,2.88998 0.485,-0.10323 2.5488,-0.8302 4.5861,-1.61549 z m -46.713,-10.49605 c -0.6063,-0.18133 -1.2577,-0.17329 -1.5875,0.0196 -0.4,0.23395 -0.1073,0.32149 1.0282,0.30748 1.4656,-0.0181 1.5086,-0.0432 0.5593,-0.32708 z m 2.8017,0.0308 c -0.1147,-0.18555 -0.4416,-0.24794 -0.7264,-0.13865 -0.7292,0.27984 -0.6433,0.47602 0.2085,0.47602 0.3995,0 0.6325,-0.15182 0.5179,-0.33737 z m 31.4653,-4.42145 c 6.3823,-0.90731 8.6159,-1.5716 15.2682,-4.54076 1.0469,-0.46727 8.8742,-5.077945 9.2377,-5.441455 0.1386,-0.13861 -3.5104,-0.25672 -8.1088,-0.26248 l -8.3609,-0.0105 -1.5875,-0.92258 c -1.0272,-0.59698 -1.6306,-1.21031 -1.7097,-1.73791 -0.1621,-1.0813 0.5766,-3.49219 1.07,-3.49219 0.85,0 4.3507,-2.67823 6.7502,-5.16441 1.393,-1.44318 3.8423,-3.91761 5.443,-5.49874 1.6007,-1.58112 2.9104,-2.98667 2.9104,-3.12345 0,-0.22247 -4.7375,1.34806 -6.5264,2.16354 -0.388,0.1769 -2.293,0.72607 -4.2333,1.22036 -3.0874,0.78653 -5.3078,1.40786 -9.5559,2.67399 -0.5992,0.17856 -2.9804,0.57662 -5.2917,0.88457 -4.6963,0.62573 -17.8549,0.51198 -20.4302,-0.17661 -0.7761,-0.20752 -2.9986,-0.62946 -4.9389,-0.93765 -1.9402,-0.30819 -4.4581,-0.79565 -5.5952,-1.08324 -1.1372,-0.2876 -2.169,-0.41855 -2.2931,-0.29101 -0.6869,0.70617 7.7917,5.89191 11.4539,7.00548 0.9864,0.29995 1.8051,2.48211 1.6245,4.32996 -0.119,1.21787 -0.4441,1.7578 -1.8733,3.11091 -0.9511,0.90051 -1.7293,1.78519 -1.7293,1.96596 0,0.18078 -0.1671,0.32868 -0.3714,0.32868 -0.2043,0 -1.8838,0.87312 -3.7321,1.940275 -1.8484,1.06715 -3.4316,1.94027 -3.5183,1.94027 -0.3014,0 -3.667,2.62157 -3.667,2.85638 0,0.46704 1.6778,0.66753 7.2319,0.86416 5.171,0.18306 10.5916,0.88263 12.3472,1.5935 1.2492,0.50581 16.2774,0.36058 20.186,-0.19508 z m -144.8929,-1.42176 c -6.4217,-0.74987 -12.2899,-0.91957 -16.6753,-0.48223 -4.7979,0.47847 -7.7923,0.13974 -10.8716,-1.22979 -2.4238,-1.07799 -5.9618,-3.69469 -5.9839,-4.42569 -0.01,-0.306955 -0.091,-1.409875 -0.1817,-2.450925 -0.2232,-2.56296 0.2226,-3.94067 1.9304,-5.96607 1.6633,-1.97255 1.7358,-2.28853 0.6494,-2.83162 -1.4447,-0.72229 -4.6588,-2.60544 -5.6444,-3.30713 -0.941,-0.66995 -1.3914,-2.40653 -0.6241,-2.40653 0.1903,0 0.4375,-0.3644 0.5493,-0.80978 0.1118,-0.44538 0.7617,-1.2554 1.4443,-1.80004 0.9606,-0.76646 1.4942,-0.94946 2.3611,-0.80971 2.652,0.4275 17.3575,-2.50993 18.0324,-3.60196 0.093,-0.15017 -0.4995,-0.6469 -1.3162,-1.10383 -4.4254,-2.47583 -13.3148,-10.02656 -14.5228,-12.33579 -0.7046,-1.34672 -0.9942,-4.31685 -0.7214,-7.3981 l 0.246,-2.78002 1.7227,-1.45255 1.7226,-1.45255 1.9455,1.24452 c 4.4542,2.84931 11.9273,6.10363 16.9418,7.37764 3.7156,0.94399 10.6854,1.44612 19.7556,1.42326 7.7435,-0.0195 9.5941,-0.13959 15.1694,-0.98427 3.4925,-0.52913 7.3819,-1.10875 8.6431,-1.28805 2.7737,-0.39434 5.2472,-1.12108 8.9958,-2.64312 4.5627,-1.85256 6.2846,-2.66653 7.4084,-3.50212 0.5821,-0.4328 1.6479,-0.99909 2.3684,-1.25841 1.1563,-0.41611 1.3876,-0.40138 1.9698,0.12545 0.3628,0.32833 0.8392,1.18213 1.0587,1.89735 0.4353,1.41844 0.3185,1.68574 -4.2264,9.66929 -3.0566,5.36917 -6.0865,8.41878 -13.6488,13.73751 -1.4509,1.02046 -1.8006,1.94406 -0.8503,2.24569 1.5467,0.4909 6.0661,0.81812 7.6841,0.55635 3.2073,-0.51888 8.4345,-2.0889 10.5447,-3.16715 2.3809,-1.21658 3.3724,-1.3174 4.3708,-0.44447 1.0844,0.94817 1.2262,2.57917 0.3476,3.99763 -0.4108,0.66321 -1.1297,1.92022 -1.5975,2.79335 -0.4677,0.87312 -1.1542,1.91523 -1.5254,2.31579 -0.3712,0.40056 -0.6749,0.85787 -0.6749,1.01623 0,0.71391 -3.9729,4.87105 -6.6016,6.90767 -7.6064,5.89329 -22.3852,9.015765 -34.2416,7.23464 -4.0018,-0.60117 -4.5075,-0.42795 -4.844,1.659255 -0.1821,1.12987 -0.6507,1.92696 -1.8839,3.20488 -2.6611,2.75765 -4.0295,3.13222 -9.2261,2.5254 z m 5.1062,-6.501905 c 0.7544,-1.45885 0.7073,-2.83974 -0.097,-2.83974 -0.3492,0 -0.7858,-0.14384 -0.9701,-0.31964 -0.1843,-0.1758 -1.2877,-0.41504 -2.4518,-0.53164 -3.9474,-0.39537 -6.5724,-0.86438 -7.0482,-1.2593 -0.5829,-0.4837 -8.2314,-1.85727 -9.1069,-1.63547 -0.3481,0.0882 -1.0625,-0.0638 -1.5875,-0.33769 -0.5251,-0.27391 -1.1815,-0.499 -1.4588,-0.5002 -0.2772,-0.001 -1.0283,-0.19171 -1.6689,-0.42338 -0.9178,-0.33189 -1.5589,-0.32312 -3.0237,0.0414 -4.0977,1.01979 -6.3161,5.33763 -3.5323,6.87527 2.9895,1.651315 3.2565,1.704175 7.1303,1.411745 4.0022,-0.302105 10.1618,-0.225865 15.5335,0.19227 1.8432,0.14348 4.3395,0.2848 5.5472,0.31403 2.0971,0.0508 2.2199,0.006 2.734,-0.987655 z m 23.4688,-6.34946 c 1.2612,-0.18466 3.2376,-0.4384 4.3922,-0.56389 2.0739,-0.22542 9.6084,-2.76104 11.6592,-3.92373 0.5821,-0.33002 2.3283,-1.61949 3.8805,-2.86548 2.6361,-2.11605 3.5974,-3.1199 3.2859,-3.43142 -0.072,-0.0716 -1.3165,0.18963 -2.7664,0.58055 -2.2415,0.60436 -3.3491,0.68376 -7.3986,0.53038 -4.7923,-0.18152 -7.5492,-0.70782 -12.2364,-2.33593 -2.7474,-0.95432 -3.1662,-1.4107 -2.5842,-2.81583 0.6512,-1.57218 1.8459,-2.59824 4.6788,-4.01854 1.5122,-0.75818 3.7822,-2.37854 5.5556,-3.96572 1.6493,-1.47604 3.9787,-3.46547 5.1765,-4.42093 1.9286,-1.53845 4.2941,-4.47682 4.9227,-6.11514 0.184,-0.47932 0.052,-0.53426 -0.7941,-0.33052 -0.5581,0.13441 -1.596,0.53538 -2.3064,0.89105 -1.3977,0.69982 -3.3384,1.2488 -6.1167,1.73023 -0.9701,0.16811 -2.1608,0.41166 -2.6458,0.54122 -0.4851,0.12957 -1.4376,0.31603 -2.1167,0.41436 -0.6791,0.0983 -1.3935,0.29771 -1.5875,0.44307 -0.7319,0.54829 -4.0092,1.41409 -7.5847,2.00374 -2.9079,0.47953 -5.9794,0.61473 -14.2875,0.62891 -18.3205,0.0313 -20.7624,-0.395 -31.451,-5.49017 -2.7615,-1.31639 -3.6504,-1.60164 -3.6504,-1.17136 0,1.07099 4.6938,5.63408 8.0008,7.77803 2.7882,1.80758 8.3043,4.52835 9.8845,4.87543 1.6511,0.36265 4.3308,3.73519 3.2987,4.15158 -0.1433,0.0578 -0.4837,0.57589 -0.7563,1.15131 -0.3887,0.82031 -1.1051,1.29947 -3.318,2.21927 -1.5522,0.64519 -4.1716,1.81919 -5.8208,2.6089 -1.6493,0.7897 -3.4596,1.65634 -4.023,1.92586 -0.5634,0.26953 -1.5079,0.49004 -2.099,0.49004 -0.6424,0 -0.9399,0.12599 -0.7396,0.31318 0.4332,0.40475 9.0273,2.3389 12.6824,2.85421 1.5522,0.21884 4.0922,0.68859 5.6444,1.04388 5.7354,1.31277 9.7344,1.89408 10.1527,1.4758 0.6558,-0.65576 1.4562,-0.45586 3.233,0.80741 1.4761,1.04949 2.1923,1.27466 5.6183,1.76657 5.9625,0.85608 7.6825,0.88756 12.2169,0.22368 z m 104.5986,-55.04341 c -6.2081,-0.57369 -15.2211,-3.09243 -20.5809,-5.75144 -3.2331,-1.60392 -3.9372,-2.31978 -3.9372,-4.00318 0,-0.94763 0.2617,-1.29753 1.6757,-2.2408 1.9277,-1.28587 2.5969,-1.27375 6.1275,0.11093 1.2381,0.48555 3.2829,1.28634 4.5441,1.77952 1.2611,0.49318 4.7536,1.39548 7.7611,2.0051 5.2936,1.07306 5.6818,1.10255 12.1708,0.92488 9.5933,-0.26267 16.3081,-1.80347 19.7287,-4.52701 2.224,-1.77079 3.2443,-1.73013 3.9943,0.15919 0.489,1.23174 0.4789,1.46278 -0.1232,2.82222 -0.7783,1.75724 -1.192,2.13939 -3.4045,3.14488 -0.9797,0.44528 -1.5109,0.86466 -1.2777,1.0088 0.5522,0.34127 0.07,1.00371 -1.0484,1.43923 -1.5845,0.61724 -7.4896,2.09796 -10.4326,2.616 -3.5964,0.63304 -11.1371,0.88693 -15.1977,0.51168 z m -112.5361,-2.81154 c -9.5944,-1.08163 -14.9176,-2.21739 -20.1373,-4.29642 -2.6972,-1.07431 -3.6752,-1.6273 -3.6752,-2.07803 0,-0.35153 -0.4584,-0.80403 -1.0718,-1.05813 -1.4647,-0.6067 -1.9051,-1.51589 -1.3228,-2.73087 0.2528,-0.5275 0.776,-1.01841 1.1625,-1.09092 0.3866,-0.0725 0.8299,-0.35226 0.985,-0.62168 0.4396,-0.76332 2.2109,-0.57915 4.2196,0.43872 3.638,1.84351 6.5741,2.62356 15.0325,3.99383 6.8062,1.10262 11.9775,1.28523 15.5672,0.54971 3.7345,-0.76519 4.833,-1.19824 11.9364,-4.70559 5.4951,-2.71331 8.2619,-3.65004 8.8847,-3.00809 0.4034,0.41576 -0.1441,3.13447 -0.7541,3.74444 -0.2743,0.27433 -1.2901,0.93585 -2.2572,1.47005 -0.9671,0.5342 -2.0759,1.32839 -2.464,1.76488 -0.5583,0.62803 -6.9474,4.43443 -7.4432,4.43443 -0.066,0 -0.9697,0.38841 -2.0076,0.86312 -4.554,2.08307 -10.9326,2.97565 -16.6547,2.33055 z m -11.2889,-52.58256 c 0.1199,-0.19402 -0.039,-0.35277 -0.3528,-0.35277 -0.3139,0 -0.4727,0.15875 -0.3528,0.35277 0.12,0.19403 0.2787,0.35278 0.3528,0.35278 0.074,0 0.2329,-0.15875 0.3528,-0.35278 z m 3.6791,-1.11256 c 0.6929,-0.22386 1.76,-0.62073 2.3714,-0.88195 0.6114,-0.26121 1.2757,-0.47493 1.4761,-0.47493 0.2004,0 1.2877,-0.38421 2.4161,-0.85379 1.1285,-0.46959 2.4883,-0.94886 3.0219,-1.06506 1.0135,-0.2207 1.3528,-0.90337 0.449,-0.90337 -0.5991,0 -6.8861,2.09344 -7.4164,2.46949 -0.194,0.13759 -1.1192,0.4703 -2.0559,0.73935 -0.9367,0.26905 -1.869,0.689 -2.0717,0.93322 -0.4747,0.57196 0.1164,0.58406 1.8095,0.037 z"
       id="path1122"
       inkscape:connector-curvature="0" />
  </g>
</svg>
