; GCODE Generated by cam.openbuilds.com on 2020-09-27 
G21 ; mm-mode
G54; Work Coordinates
G21; mm-mode
G90; Absolute Positioning
M3 S1000; Spindle On

; Operation 0: CNC: Vector (path inside)
; Tool Diameter: 6
; Starting inflateGrp: Closed?:true

G0 Z10
G0 F1000 X38.6135 Y121.6680

G0 Z0
G1 F200 Z-1.0000
G1 F800 X31.3865 Y121.6680 Z-1.0000 S1000
G1 F800 X31.3865 Y121.4680 Z-1.0000 S1000
G1 F800 X38.6135 Y121.4680 Z-1.0000 S1000
G1 F800 X38.6135 Y121.6680 Z-1.0000 S1000
; retracting back to z-safe
G0 Z10
; Operation 1: Drill: Peck (Centered)
; Tool Diameter: 6
; Starting : Closed?:true

G0 Z10
G0 F1000 X46.6565 Y121.5680

G0 Z0
G1 F200 Z0.0000
G1 F800 X46.6565 Y121.5680 Z0.0000 S1000
G1 F800 X46.6565 Y121.5680 Z0.0000 S1000
; Starting : Closed?:true
G1 F200 Z0.0000
G1 F800 X46.6565 Y121.5680 Z-1.0000 S1000
G1 F800 X46.6565 Y121.5680 Z0.0000 S1000
; retracting back to z-safe
G0 Z10
; Operation 2: CNC: Vector (path inside)
; Tool Diameter: 6
; Starting inflateGrp: Closed?:true

G0 Z10
G0 F1000 X35.0192 Y8.1917

G0 Z0
G1 F200 Z-1.5000
G1 F800 X35.0367 Y8.2007 Z-1.5000 S1000
G1 F800 X35.0507 Y8.2146 Z-1.5000 S1000
G1 F800 X35.0595 Y8.2320 Z-1.5000 S1000
G1 F800 X35.0626 Y8.2513 Z-1.5000 S1000
G1 F800 X35.0595 Y8.2707 Z-1.5000 S1000
G1 F800 X35.0507 Y8.2881 Z-1.5000 S1000
G1 F800 X35.0367 Y8.3020 Z-1.5000 S1000
G1 F800 X35.0195 Y8.3108 Z-1.5000 S1000
G1 F800 X35.0000 Y8.3139 Z-1.5000 S1000
G1 F800 X34.9805 Y8.3108 Z-1.5000 S1000
G1 F800 X34.9633 Y8.3020 Z-1.5000 S1000
G1 F800 X34.9493 Y8.2881 Z-1.5000 S1000
G1 F800 X34.9405 Y8.2707 Z-1.5000 S1000
G1 F800 X34.9374 Y8.2513 Z-1.5000 S1000
G1 F800 X34.9405 Y8.2320 Z-1.5000 S1000
G1 F800 X34.9493 Y8.2146 Z-1.5000 S1000
G1 F800 X34.9633 Y8.2007 Z-1.5000 S1000
G1 F800 X34.9808 Y8.1917 Z-1.5000 S1000
G1 F800 X35.0000 Y8.1887 Z-1.5000 S1000
G1 F800 X35.0192 Y8.1917 Z-1.5000 S1000
; retracting back to z-safe
G0 Z10
; Operation 3: CNC: Vector (path outside)
; Tool Diameter: 6
; Starting inflateGrp: Closed?:true

G0 Z10
G0 F1000 X64.2286 Y-1.9002

G0 Z0
G1 F200 Z-1.5000
G1 F800 X5.7714 Y-1.9002 Z-1.5000 S1000
G1 F800 X4.4569 Y-1.7796 Z-1.5000 S1000
G1 F800 X3.7079 Y-1.6023 Z-1.5000 S1000
G1 F800 X2.7652 Y-1.2464 Z-1.5000 S1000
G1 F800 X1.9510 Y-0.7826 Z-1.5000 S1000
G1 F800 X1.1648 Y-0.1538 Z-1.5000 S1000
G1 F800 X0.5467 Y0.5185 Z-1.5000 S1000
G1 F800 X-0.0146 Y1.3558 Z-1.5000 S1000
G1 F800 X-0.3485 Y2.0190 Z-1.5000 S1000
G1 F800 X-0.6874 Y2.9697 Z-1.5000 S1000
G1 F800 X-0.8333 Y3.5656 Z-1.5000 S1000
G1 F800 X-0.9717 Y4.5654 Z-1.5000 S1000
G1 F800 X-1.0000 Y4.9768 Z-1.5000 S1000
G1 F800 X-1.0000 Y123.2229 Z-1.5000 S1000
G1 F800 X-0.9717 Y123.6343 Z-1.5000 S1000
G1 F800 X-0.8333 Y124.6341 Z-1.5000 S1000
G1 F800 X-0.6874 Y125.2300 Z-1.5000 S1000
G1 F800 X-0.3485 Y126.1807 Z-1.5000 S1000
G1 F800 X-0.0146 Y126.8439 Z-1.5000 S1000
G1 F800 X0.5467 Y127.6812 Z-1.5000 S1000
G1 F800 X1.1648 Y128.3535 Z-1.5000 S1000
G1 F800 X1.9510 Y128.9823 Z-1.5000 S1000
G1 F800 X2.7652 Y129.4461 Z-1.5000 S1000
G1 F800 X3.7079 Y129.8020 Z-1.5000 S1000
G1 F800 X4.4572 Y129.9793 Z-1.5000 S1000
G1 F800 X5.4611 Y130.0837 Z-1.5000 S1000
G1 F800 X64.2286 Y130.0998 Z-1.5000 S1000
G1 F800 X65.5428 Y129.9793 Z-1.5000 S1000
G1 F800 X66.2921 Y129.8020 Z-1.5000 S1000
G1 F800 X67.2348 Y129.4461 Z-1.5000 S1000
G1 F800 X68.0490 Y128.9823 Z-1.5000 S1000
G1 F800 X68.8352 Y128.3535 Z-1.5000 S1000
G1 F800 X69.4533 Y127.6812 Z-1.5000 S1000
G1 F800 X70.0146 Y126.8439 Z-1.5000 S1000
G1 F800 X70.3485 Y126.1807 Z-1.5000 S1000
G1 F800 X70.6874 Y125.2300 Z-1.5000 S1000
G1 F800 X70.8333 Y124.6341 Z-1.5000 S1000
G1 F800 X70.9717 Y123.6343 Z-1.5000 S1000
G1 F800 X71.0000 Y123.2229 Z-1.5000 S1000
G1 F800 X71.0000 Y4.9768 Z-1.5000 S1000
G1 F800 X70.8904 Y3.6865 Z-1.5000 S1000
G1 F800 X70.7396 Y2.9924 Z-1.5000 S1000
G1 F800 X70.4106 Y2.0399 Z-1.5000 S1000
G1 F800 X69.9966 Y1.2485 Z-1.5000 S1000
G1 F800 X69.4023 Y0.4358 Z-1.5000 S1000
G1 F800 X68.7507 Y-0.2156 Z-1.5000 S1000
G1 F800 X67.9373 Y-0.8100 Z-1.5000 S1000
G1 F800 X67.2486 Y-1.1862 Z-1.5000 S1000
G1 F800 X66.3076 Y-1.5498 Z-1.5000 S1000
G1 F800 X65.6688 Y-1.7186 Z-1.5000 S1000
G1 F800 X64.6711 Y-1.8674 Z-1.5000 S1000
G1 F800 X64.2286 Y-1.9002 Z-1.5000 S1000
; retracting back to z-safe
G0 Z10
; Operation 4: CNC: Vector (path outside)
; Tool Diameter: 6
; Starting inflateGrp: Closed?:true

G0 Z10
G0 F1000 X66.0000 Y-3.0000

G0 Z0
G1 F200 Z-3.4000
G1 F800 X4.0000 Y-3.0000 Z-3.4000 S1000
G1 F800 X2.6519 Y-2.8805 Z-3.4000 S1000
G1 F800 X1.9306 Y-2.7170 Z-3.4000 S1000
G1 F800 X0.9393 Y-2.3591 Z-3.4000 S1000
G1 F800 X0.1355 Y-1.9203 Z-3.4000 S1000
G1 F800 X-0.7010 Y-1.2805 Z-3.4000 S1000
G1 F800 X-1.3362 Y-0.6179 Z-3.4000 S1000
G1 F800 X-1.9406 Y0.2456 Z-3.4000 S1000
G1 F800 X-2.2954 Y0.9223 Z-3.4000 S1000
G1 F800 X-2.6625 Y1.9117 Z-3.4000 S1000
G1 F800 X-2.8194 Y2.5286 Z-3.4000 S1000
G1 F800 X-2.9695 Y3.5733 Z-3.4000 S1000
G1 F800 X-3.0000 Y4.0000 Z-3.4000 S1000
G1 F800 X-3.0000 Y126.0000 Z-3.4000 S1000
G1 F800 X-2.9695 Y126.4267 Z-3.4000 S1000
G1 F800 X-2.8194 Y127.4713 Z-3.4000 S1000
G1 F800 X-2.6626 Y128.0881 Z-3.4000 S1000
G1 F800 X-2.2955 Y129.0776 Z-3.4000 S1000
G1 F800 X-1.9406 Y129.7544 Z-3.4000 S1000
G1 F800 X-1.3362 Y130.6179 Z-3.4000 S1000
G1 F800 X-0.7008 Y131.2806 Z-3.4000 S1000
G1 F800 X0.1357 Y131.9203 Z-3.4000 S1000
G1 F800 X0.9391 Y132.3589 Z-3.4000 S1000
G1 F800 X1.9304 Y132.7169 Z-3.4000 S1000
G1 F800 X2.6519 Y132.8805 Z-3.4000 S1000
G1 F800 X3.7025 Y132.9852 Z-3.4000 S1000
G1 F800 X66.0000 Y133.0000 Z-3.4000 S1000
G1 F800 X67.3481 Y132.8805 Z-3.4000 S1000
G1 F800 X68.0696 Y132.7169 Z-3.4000 S1000
G1 F800 X69.0609 Y132.3589 Z-3.4000 S1000
G1 F800 X69.8643 Y131.9203 Z-3.4000 S1000
G1 F800 X70.7008 Y131.2806 Z-3.4000 S1000
G1 F800 X71.3362 Y130.6179 Z-3.4000 S1000
G1 F800 X71.9406 Y129.7544 Z-3.4000 S1000
G1 F800 X72.2955 Y129.0776 Z-3.4000 S1000
G1 F800 X72.6626 Y128.0881 Z-3.4000 S1000
G1 F800 X72.8194 Y127.4713 Z-3.4000 S1000
G1 F800 X72.9695 Y126.4267 Z-3.4000 S1000
G1 F800 X73.0000 Y126.0000 Z-3.4000 S1000
G1 F800 X73.0000 Y4.0000 Z-3.4000 S1000
G1 F800 X72.8805 Y2.6519 Z-3.4000 S1000
G1 F800 X72.7170 Y1.9306 Z-3.4000 S1000
G1 F800 X72.3591 Y0.9393 Z-3.4000 S1000
G1 F800 X71.9203 Y0.1355 Z-3.4000 S1000
G1 F800 X71.2805 Y-0.7010 Z-3.4000 S1000
G1 F800 X70.6179 Y-1.3362 Z-3.4000 S1000
G1 F800 X69.7544 Y-1.9406 Z-3.4000 S1000
G1 F800 X69.0778 Y-2.2954 Z-3.4000 S1000
G1 F800 X68.0883 Y-2.6626 Z-3.4000 S1000
G1 F800 X67.4710 Y-2.8195 Z-3.4000 S1000
G1 F800 X66.4264 Y-2.9695 Z-3.4000 S1000
G1 F800 X66.0000 Y-3.0000 Z-3.4000 S1000
; Starting inflateGrp: Closed?:true
G1 F200 Z-6.8000
G1 F800 X4.0000 Y-3.0000 Z-6.8000 S1000
G1 F800 X2.6519 Y-2.8805 Z-6.8000 S1000
G1 F800 X1.9306 Y-2.7170 Z-6.8000 S1000
G1 F800 X0.9393 Y-2.3591 Z-6.8000 S1000
G1 F800 X0.1355 Y-1.9203 Z-6.8000 S1000
G1 F800 X-0.7010 Y-1.2805 Z-6.8000 S1000
G1 F800 X-1.3362 Y-0.6179 Z-6.8000 S1000
G1 F800 X-1.9406 Y0.2456 Z-6.8000 S1000
G1 F800 X-2.2954 Y0.9223 Z-6.8000 S1000
G1 F800 X-2.6625 Y1.9117 Z-6.8000 S1000
G1 F800 X-2.8194 Y2.5286 Z-6.8000 S1000
G1 F800 X-2.9695 Y3.5733 Z-6.8000 S1000
G1 F800 X-3.0000 Y4.0000 Z-6.8000 S1000
G1 F800 X-3.0000 Y126.0000 Z-6.8000 S1000
G1 F800 X-2.9695 Y126.4267 Z-6.8000 S1000
G1 F800 X-2.8194 Y127.4713 Z-6.8000 S1000
G1 F800 X-2.6626 Y128.0881 Z-6.8000 S1000
G1 F800 X-2.2955 Y129.0776 Z-6.8000 S1000
G1 F800 X-1.9406 Y129.7544 Z-6.8000 S1000
G1 F800 X-1.3362 Y130.6179 Z-6.8000 S1000
G1 F800 X-0.7008 Y131.2806 Z-6.8000 S1000
G1 F800 X0.1357 Y131.9203 Z-6.8000 S1000
G1 F800 X0.9391 Y132.3589 Z-6.8000 S1000
G1 F800 X1.9304 Y132.7169 Z-6.8000 S1000
G1 F800 X2.6519 Y132.8805 Z-6.8000 S1000
G1 F800 X3.7025 Y132.9852 Z-6.8000 S1000
G1 F800 X66.0000 Y133.0000 Z-6.8000 S1000
G1 F800 X67.3481 Y132.8805 Z-6.8000 S1000
G1 F800 X68.0696 Y132.7169 Z-6.8000 S1000
G1 F800 X69.0609 Y132.3589 Z-6.8000 S1000
G1 F800 X69.8643 Y131.9203 Z-6.8000 S1000
G1 F800 X70.7008 Y131.2806 Z-6.8000 S1000
G1 F800 X71.3362 Y130.6179 Z-6.8000 S1000
G1 F800 X71.9406 Y129.7544 Z-6.8000 S1000
G1 F800 X72.2955 Y129.0776 Z-6.8000 S1000
G1 F800 X72.6626 Y128.0881 Z-6.8000 S1000
G1 F800 X72.8194 Y127.4713 Z-6.8000 S1000
G1 F800 X72.9695 Y126.4267 Z-6.8000 S1000
G1 F800 X73.0000 Y126.0000 Z-6.8000 S1000
G1 F800 X73.0000 Y4.0000 Z-6.8000 S1000
G1 F800 X72.8805 Y2.6519 Z-6.8000 S1000
G1 F800 X72.7170 Y1.9306 Z-6.8000 S1000
G1 F800 X72.3591 Y0.9393 Z-6.8000 S1000
G1 F800 X71.9203 Y0.1355 Z-6.8000 S1000
G1 F800 X71.2805 Y-0.7010 Z-6.8000 S1000
G1 F800 X70.6179 Y-1.3362 Z-6.8000 S1000
G1 F800 X69.7544 Y-1.9406 Z-6.8000 S1000
G1 F800 X69.0778 Y-2.2954 Z-6.8000 S1000
G1 F800 X68.0883 Y-2.6626 Z-6.8000 S1000
G1 F800 X67.4710 Y-2.8195 Z-6.8000 S1000
G1 F800 X66.4264 Y-2.9695 Z-6.8000 S1000
G1 F800 X66.0000 Y-3.0000 Z-6.8000 S1000
; Starting inflateGrp: Closed?:true
G1 F200 Z-10.0000
G1 F800 X40.5000 Y-3.0000 Z-10.0000 S1000
G1 F800 X40.5000 Y-3.0000 Z-7.5000 S1000
G1 F800 X29.5000 Y-3.0000 Z-7.5000 S1000
G1 F800 X29.5000 Y-3.0000 Z-10.0000 S1000
G1 F800 X4.0000 Y-3.0000 Z-10.0000 S1000
G1 F800 X4.0000 Y-3.0000 Z-10.0000 S1000
G1 F800 X2.6519 Y-2.8805 Z-10.0000 S1000
G1 F800 X1.9306 Y-2.7170 Z-10.0000 S1000
G1 F800 X0.9393 Y-2.3591 Z-10.0000 S1000
G1 F800 X0.1355 Y-1.9203 Z-10.0000 S1000
G1 F800 X-0.7010 Y-1.2805 Z-10.0000 S1000
G1 F800 X-1.3362 Y-0.6179 Z-10.0000 S1000
G1 F800 X-1.9406 Y0.2456 Z-10.0000 S1000
G1 F800 X-2.2954 Y0.9223 Z-10.0000 S1000
G1 F800 X-2.6625 Y1.9117 Z-10.0000 S1000
G1 F800 X-2.8194 Y2.5286 Z-10.0000 S1000
G1 F800 X-2.9695 Y3.5733 Z-10.0000 S1000
G1 F800 X-3.0000 Y4.0000 Z-10.0000 S1000
G1 F800 X-3.0000 Y126.0000 Z-10.0000 S1000
G1 F800 X-2.9695 Y126.4267 Z-10.0000 S1000
G1 F800 X-2.8194 Y127.4713 Z-10.0000 S1000
G1 F800 X-2.6626 Y128.0881 Z-10.0000 S1000
G1 F800 X-2.2955 Y129.0776 Z-10.0000 S1000
G1 F800 X-1.9406 Y129.7544 Z-10.0000 S1000
G1 F800 X-1.3362 Y130.6179 Z-10.0000 S1000
G1 F800 X-0.7008 Y131.2806 Z-10.0000 S1000
G1 F800 X0.1357 Y131.9203 Z-10.0000 S1000
G1 F800 X0.9391 Y132.3589 Z-10.0000 S1000
G1 F800 X1.9304 Y132.7169 Z-10.0000 S1000
G1 F800 X2.6519 Y132.8805 Z-10.0000 S1000
G1 F800 X3.7025 Y132.9852 Z-10.0000 S1000
G1 F800 X29.3513 Y132.9913 Z-10.0000 S1000
G1 F800 X29.3513 Y132.9913 Z-7.5000 S1000
G1 F800 X40.3512 Y132.9939 Z-7.5000 S1000
G1 F800 X40.3512 Y132.9939 Z-10.0000 S1000
G1 F800 X66.0000 Y133.0000 Z-10.0000 S1000
G1 F800 X66.0000 Y133.0000 Z-10.0000 S1000
G1 F800 X67.3481 Y132.8805 Z-10.0000 S1000
G1 F800 X68.0696 Y132.7169 Z-10.0000 S1000
G1 F800 X69.0609 Y132.3589 Z-10.0000 S1000
G1 F800 X69.8643 Y131.9203 Z-10.0000 S1000
G1 F800 X70.7008 Y131.2806 Z-10.0000 S1000
G1 F800 X71.3362 Y130.6179 Z-10.0000 S1000
G1 F800 X71.9406 Y129.7544 Z-10.0000 S1000
G1 F800 X72.2955 Y129.0776 Z-10.0000 S1000
G1 F800 X72.6626 Y128.0881 Z-10.0000 S1000
G1 F800 X72.8194 Y127.4713 Z-10.0000 S1000
G1 F800 X72.9695 Y126.4267 Z-10.0000 S1000
G1 F800 X73.0000 Y126.0000 Z-10.0000 S1000
G1 F800 X73.0000 Y4.0000 Z-10.0000 S1000
G1 F800 X72.8805 Y2.6519 Z-10.0000 S1000
G1 F800 X72.7170 Y1.9306 Z-10.0000 S1000
G1 F800 X72.3591 Y0.9393 Z-10.0000 S1000
G1 F800 X71.9203 Y0.1355 Z-10.0000 S1000
G1 F800 X71.2805 Y-0.7010 Z-10.0000 S1000
G1 F800 X70.6179 Y-1.3362 Z-10.0000 S1000
G1 F800 X69.7544 Y-1.9406 Z-10.0000 S1000
G1 F800 X69.0778 Y-2.2954 Z-10.0000 S1000
G1 F800 X68.0883 Y-2.6626 Z-10.0000 S1000
G1 F800 X67.4710 Y-2.8195 Z-10.0000 S1000
G1 F800 X66.4264 Y-2.9695 Z-10.0000 S1000
G1 F800 X66.0000 Y-3.0000 Z-10.0000 S1000
; retracting back to z-safe
G0 Z10

M5 S0; Spindle Off
