<?xml version="1.0" encoding="UTF-8" standalone="no"?>
<!-- Created with Inkscape (http://www.inkscape.org/) -->

<svg
   xmlns:dc="http://purl.org/dc/elements/1.1/"
   xmlns:cc="http://creativecommons.org/ns#"
   xmlns:rdf="http://www.w3.org/1999/02/22-rdf-syntax-ns#"
   xmlns:svg="http://www.w3.org/2000/svg"
   xmlns="http://www.w3.org/2000/svg"
   xmlns:sodipodi="http://sodipodi.sourceforge.net/DTD/sodipodi-0.dtd"
   xmlns:inkscape="http://www.inkscape.org/namespaces/inkscape"
   width="385.52103mm"
   height="299.12744mm"
   viewBox="0 0 385.52103 299.12743"
   version="1.1"
   id="svg8"
   inkscape:version="0.92.5 (2060ec1f9f, 2020-04-08)"
   sodipodi:docname="e_02.svg">
  <defs
     id="defs2" />
  <sodipodi:namedview
     id="base"
     pagecolor="#ffffff"
     bordercolor="#666666"
     borderopacity="1.0"
     inkscape:pageopacity="0.0"
     inkscape:pageshadow="2"
     inkscape:zoom="0.030935922"
     inkscape:cx="13682.54"
     inkscape:cy="986.49822"
     inkscape:document-units="mm"
     inkscape:current-layer="layer1"
     showgrid="false"
     inkscape:window-width="1920"
     inkscape:window-height="1029"
     inkscape:window-x="0"
     inkscape:window-y="0"
     inkscape:window-maximized="1"
     fit-margin-top="0"
     fit-margin-left="0"
     fit-margin-right="0"
     fit-margin-bottom="0"
     inkscape:showpageshadow="false" />
  <metadata
     id="metadata5">
    <rdf:RDF>
      <cc:Work
         rdf:about="">
        <dc:format>image/svg+xml</dc:format>
        <dc:type
           rdf:resource="http://purl.org/dc/dcmitype/StillImage" />
        <dc:title></dc:title>
      </cc:Work>
    </rdf:RDF>
  </metadata>
  <g
     inkscape:label="Calque 1"
     inkscape:groupmode="layer"
     id="layer1"
     transform="translate(6053.4743,228.26688)">
    <path
       style="fill:#000000;stroke-width:0.35277778"
       d="m -5921.0882,70.499989 c -3.4867,-0.70179 -7.7053,-1.82737 -9.9149,-2.64544 -6.6743,-2.47096 -13.489,-9.28324 -17.4703,-17.46389 -2.5342,-5.20727 -2.881,-9.03359 -1.5272,-16.85018 0.9811,-5.66466 3.1497,-12.97609 4.3194,-14.56277 0.6805,-0.92313 0.6811,-0.95997 0.032,-1.94179 -0.3642,-0.55045 -0.8209,-1.26442 -1.0149,-1.5866 -0.194,-0.32219 -2.099,-3.14815 -4.2333,-6.2799099 -4.8128,-7.06206 -7.2294,-10.95955 -7.2309,-11.66206 0,-0.76231 -2.2174,-5.2231399 -3.3148,-6.6731699 -0.5058,-0.66828 -0.9196,-1.5157302 -0.9196,-1.8832202 0,-0.77132 -1.7285,-4.63622 -3.1109,-6.95588 -0.5203,-0.87312 -1.2636,-2.44541 -1.6516,-3.49397 -0.7289,-1.96946 -1.0869,-2.31891 -2.7298,-2.66427 -0.6708,-0.14104 -1.1848,-0.63229 -1.6828,-1.60851 -0.8023,-1.57268 -1.0634,-1.63168 -3.8777,-0.8763 -1.2717,0.34135 -3.5812,0.51689 -6.7028,0.50948 -4.5659,-0.0108 -6.5068,-0.16889 -12.3472,-1.00546 -1.4552,-0.20845 -3.5189,-0.45948 -4.5861,-0.55785 -3.3897,-0.31248 -9.2596,-1.58782 -14.0974,-3.06289 -1.8357,-0.55972 -4.3757,-1.25428 -5.6444,-1.54345 -1.2687,-0.28917 -3.0212,-0.76202 -3.8943,-1.05078 -0.8731,-0.28875 -2.6019,-0.85078 -3.8418,-1.24895 -3.7863,-1.21595 -8.8917,-3.786 -11.5201,-5.79922 -3.9634,-3.03573 -10.0337,-9.53732 -12.0606,-12.91762 -2.7515,-4.58866 -2.9772,-5.16271 -3.1773,-8.08335 l -0.1868,-2.72535 1.7231,-0.97013 c 7.0042,-3.9433 14.5111,-8.73702 17.4218,-11.12526 0.8731,-0.71638 2.4606,-1.82853 3.5278,-2.47143 5.5592,-3.3491 18.5476,-15.25645 23.5308,-21.572309 0.9311,-1.18 3.0966,-3.67095 4.8123,-5.53544 1.7157,-1.8645 5.4028,-6.40624 8.1936,-10.09277 2.7907,-3.68654 5.7526,-7.43183 6.5819,-8.32288 0.8293,-0.89105 2.4093,-2.6373 3.5111,-3.88055 1.1018,-1.24326 5.9782,-6.26903 10.8365,-11.16838 7.5881,-7.65226 9.3942,-9.28088 12.8134,-11.55384 2.189,-1.45526 4.9326,-3.35369 6.0968,-4.21875 1.1642,-0.86506 2.7527,-2.03658 3.5302,-2.60338 2.0539,-1.49752 8.2714,-4.66788 12.3448,-6.29474 4.5136,-1.80273 12.9447,-4.47999 16.5805,-5.26511 5.1846,-1.11954 10.9373,-3.8677 17.9388,-8.56955 4.083,-2.74191 4.6343,-2.97205 6.0224,-2.51394 1.0739,0.35444 1.4637,0.28217 3.4416,-0.63815 1.2268,-0.57082 2.9449,-1.28079 3.8181,-1.57771 1.4293,-0.48606 7.7107,-3.08162 10.4069,-4.30025 4.8472,-2.19085 17.8715,-5.49359 25.5764,-6.48572 16.0262,-2.06364 32.117,-1.67874 41.9067,1.00242 0.7197,0.19712 4.0024,1.01077 7.2949,1.80811 3.2925,0.79735 7.1025,1.89203 8.4667,2.43263 1.3642,0.54061 4.3321,1.63709 6.5954,2.43663 3.888,1.37353 7.561,3.29906 15.6405,8.19949 1.7462,1.05915 4.0481,2.37433 5.1152,2.92263 1.0672,0.5483 2.6547,1.48346 3.5278,2.07813 0.8732,0.59467 2.3813,1.60418 3.3514,2.24335 0.9702,0.63916 2.2851,1.59364 2.922,2.12105 1.9041,1.57653 5.0766,3.64156 5.5946,3.64156 0.2661,0 1.2181,-1.15094 2.1156,-2.55764 2.3274,-3.64825 7.1594,-8.87308 14.2737,-15.43403 1.9987,-1.84326 4.929,-4.62139 6.5117,-6.17361 6.2904,-6.16915 8.6243,-8.25251 12.856,-11.47604 5.5758,-4.24733 8.9537,-6.52657 12.5236,-8.45022 10.2136,-5.5036 21.4583,-13.53828 24.6945,-17.6448 1.9022,-2.41377 3.7824,-2.81246 4.5892,-0.97313 0.1923,0.43833 0.7185,0.95572 1.1693,1.14974 0.9277,0.39933 0.9149,1.04334 -0.088,4.40973 -0.5432,1.82302 -1.1021,5.80269 -1.4369,10.23055 -0.081,1.06716 -0.2725,3.52778 -0.4262,5.46806 -0.1537,1.94028 -0.2689,6.3059 -0.2558,9.70139 0.019,5.07597 0.1683,6.83219 0.8366,9.87777 0.447,2.0373 1.0089,4.8948 1.2487,6.35 0.2397,1.45521 0.941,5.50334 1.5583,8.99584 0.6174,3.4925 1.3634,7.77875 1.6579,9.525 0.2945,1.74625 0.751,4.1275 1.0145,5.29166 0.4013,1.77378 1.1063,5.4058 2.1226,10.93611 1.1186,6.08632 1.3718,9.09683 1.4246,16.93334 0.062,9.17135 -0.2783,15.32159 -1.0923,19.75556 -0.7749,4.22136 -1.756,8.27131 -2.4356,10.054166 -0.3328,0.87312 -0.6297,1.93151 -0.6598,2.35198 -0.03,0.42046 -0.1739,0.88348 -0.3194,1.02893 -0.1455,0.14545 -0.2646,0.474243 -0.2646,0.730643 0,0.25641 -0.7896,2.45941 -1.7546,4.89556 -1.7941,4.52875 -2.0987,5.25471 -3.6219,8.63178 -0.4813,1.06715 -0.9958,2.33715 -1.1433,2.82222 -0.2731,0.89824 -3.9788,8.83551 -5.0234,10.75972 -0.316,0.58208 -1.2356,2.09021 -2.0437,3.35139 -0.808,1.26118 -1.9312,3.06935 -2.496,4.01816 -0.5647,0.94881 -1.3653,2.29337 -1.7792,2.98791 -0.4137,0.69454 -1.2096,1.82324 -1.7685,2.50823 -0.5589,0.68498 -1.4847,1.93818 -2.0575,2.78489 -0.5727,0.84671 -1.2453,1.61776 -1.4946,1.71344 -0.2494,0.0957 -0.4534,0.32722 -0.4534,0.51453 0,0.1873 -1.1091,1.71813 -2.4647,3.40184 -1.3556,1.6837 -3.1237,3.88184 -3.9292,4.88474 -0.8055,1.0029 -2.4852,2.9079 -3.7328,4.23333 -1.2476,1.32543 -2.6942,2.95722 -3.2146,3.62618 -0.5204,0.66898 -1.3238,1.62148 -1.7853,2.11667 -3.4648,3.7178 -5.8416,7.23526 -8.1767,12.10105 -0.6285,1.30969 -1.257,2.38125 -1.3966,2.38125 -0.1396,0 -0.4202,0.75406 -0.6237,1.6757 -0.2034,0.92163 -0.4754,2.01126 -0.6045,2.4214 -0.2221,0.70586 -0.078,0.7591 2.7044,0.99653 2.9663,0.25317 4.7965,0.85601 9.4654,3.1178802 7.3045,3.5387099 10.4437,11.8550899 10.2832,27.2426598 -0.1027,9.84137 -1.1839,14.92018 -4.6695,21.93396 -2.8807,5.79677 -4.9126,8.63584 -8.9241,12.46904 -5.7291,5.47457 -9.4734,7.87372 -14.5049,9.2939 -7.2799,2.05484 -14.8232,2.16239 -20.4611,0.29173 -5.5891,-1.85447 -9.4858,-3.72097 -13.4215,-6.42879 -2.3664,-1.62814 -7.3457,-6.72556 -8.6043,-8.80845 -0.6449,-1.06716 -1.6679,-2.50848 -2.2733,-3.20294 -0.6055,-0.69447 -1.2714,-1.55875 -1.4797,-1.92063 -0.3253,-0.56489 -0.5249,-0.60202 -1.4111,-0.26247 -0.5678,0.21751 -3.0167,1.18028 -5.442,2.13947 -2.4254,0.9592 -5.6798,2.02043 -7.232,2.3583 -1.5522,0.33787 -4.4891,1.0685 -6.5264,1.62363 -5.9732,1.6276 -12.7402,3.11289 -17.5583,3.85383 -2.4697,0.37979 -5.919,1.00026 -7.6653,1.3788 -1.7462,0.37855 -4.3656,0.78482 -5.8208,0.90283 -1.4552,0.11801 -4.3921,0.43844 -6.5264,0.71207 -2.1343,0.27364 -5.3093,0.6808 -7.0556,0.9048 -6.9542,0.89208 -22.539,0.96455 -27.1638,0.12631 -0.5821,-0.1055 -2.5665,-0.248 -4.4098,-0.31667 -6.1195,-0.22798 -9.3245,-0.57289 -11.6416,-1.25283 -3.4072,-0.9998 -7.9133,-1.80767 -8.6042,-1.54257 -0.3338,0.1281 -0.9455,0.96664 -1.3593,1.86341 -0.4139,0.89677 -1.1989,2.1826 -1.7445,2.85739 -0.5456,0.6748 -0.992,1.3946 -0.992,1.59955 0,0.43407 -2.9899,3.37078 -5.3107,5.21628 -0.8836,0.70261 -3.0267,1.8538 -4.7625,2.55821 -1.7358,0.7044 -3.4735,1.42155 -3.8616,1.59367 -2.377,1.05432 -7.144,2.12513 -9.1488,2.05511 -0.5949,-0.0208 -1.7961,-0.18157 -2.6692,-0.35731 z m 10.1341,-6.50235 c 6.089,-2.21284 6.8262,-2.70601 9.9081,-6.62908 3.5379,-4.50343 5.005,-8.14475 5.005,-12.42255 0,-1.60332 0.2403,-3.62974 0.5452,-4.59834 1.469,-4.66597 2.01,-13.14498 0.9999,-15.6695 -0.7039,-1.75927 -4.4132,-5.19155 -7.2374,-6.69681 -4.7042,-2.50733 -16.9653,-4.27392 -21.8244,-3.14448 -0.8731,0.20294 -3.3337,0.58003 -5.468,0.83798 -3.2201,0.38917 -4.4043,0.71391 -6.9573,1.90785 -3.4053,1.59247 -4.7089,3.01069 -5.1011,5.54973 -0.1166,0.7548 -0.4147,1.77598 -0.6626,2.26929 -0.2478,0.49331 -0.6279,1.92206 -0.8445,3.175 -0.2167,1.25294 -0.6381,3.28676 -0.9364,4.51959 -0.2984,1.23283 -0.6113,3.88762 -0.6954,5.89953 -0.1371,3.2795 -0.055,3.94191 0.791,6.40154 1.5064,4.37831 3.4185,7.29143 7.3917,11.26168 2.9857,2.98358 4.073,3.81763 6.5329,5.01147 2.5308,1.22818 7.5154,2.80378 10.5359,3.33028 2.6642,0.4644 4.6695,0.21349 8.0174,-1.00318 z m 177.2522,-5.12794 c 3.6137,-0.73794 6.5468,-1.75715 8.5797,-2.98133 3.8085,-2.29338 10.5364,-8.74452 12.7595,-12.23461 1.1005,-1.72778 3.3803,-6.31941 4.4279,-8.9184 1.4039,-3.48262 1.9857,-8.55487 1.841,-16.05139 -0.073,-3.78354 -0.2064,-7.43479 -0.2963,-8.11389 -0.09,-0.6790999 -0.2605,-2.0284699 -0.3789,-2.9986099 -0.8521,-6.97994998 -4.437,-11.79684 -10.1012,-13.57226 -2.5845,-0.81014 -3.9641,-0.86247 -6.5862,-0.24983 -1.9208,0.4488 -4.3096,2.03004 -4.3096,2.85274 0,0.25622 -0.789,1.20391 -1.7534,2.10598 -1.6438,1.53756002 -5.6307,3.70235 -12.3615,6.71201 -2.9003,1.29684 -4.762,2.68939 -12.9904,9.7165699 -2.1198,1.8103 -6.7034,7.51315 -9.6561,12.01396 -1.0819,1.64923 -2.3507,3.39548 -2.8193,3.88055 -0.4687,0.48507 -1.2316,1.64213 -1.6953,2.57124 -0.7867,1.5762 -0.8168,1.84359 -0.4484,3.99396 0.3469,2.02548 0.6024,2.52597 2.1089,4.13154 0.9428,1.00478 2.4671,2.81201 3.3873,4.01608 1.9381,2.53585 5.6385,5.65139 9.4171,7.92855 3.5727,2.15307 5.4527,2.95365 10.2305,4.35648 4.3872,1.28811 7.3195,1.5197 10.6447,0.84066 z m -106.4238,-8.46792 c 1.7462,-0.20107 3.81,-0.51083 4.5861,-0.68836 0.7761,-0.17753 3.3161,-0.49388 5.6444,-0.70298 2.3284,-0.20912 5.424,-0.60571 6.8792,-0.88132 1.4552,-0.27561 5.424,-0.98492 8.8195,-1.57625 3.3954,-0.59133 8.5548,-1.70699 11.4652,-2.47925 2.9104,-0.77226 7.2761,-1.8916 9.7014,-2.48743 2.4254,-0.59583 5.2035,-1.37947 6.1736,-1.74143 6.2194,-2.32042 7.7074,-2.96507 8.6235,-3.73593 0.5644,-0.47489 2.0225,-2.48633 3.2404,-4.46985 1.2178,-1.98352 2.6337,-4.16203 3.1463,-4.84112 0.5127,-0.6791 2.5838,-3.45722 4.6025,-6.17361 3.4758,-4.67703 7.8679,-9.41447 11.297,-12.1851399 7.7682,-6.27656 8.8121,-7.02259 11.6,-8.28971998 1.6493,-0.74959 3.42,-1.64847002 3.9351,-1.99749002 0.515,-0.34903 1.15,-0.63462 1.4111,-0.63464 0.2611,-3e-5 1.688,-0.77744 3.1709,-1.72757 2.02,-1.29425 3.0441,-2.24538 4.0833,-3.7923199 2.3044,-3.4302602 4.9405,-8.2685502 5.9301,-10.8842302 0.9018,-2.38355 3.2568,-7.38515 4.1449,-8.80291 1.6177,-2.58259 6.5852,-8.58503 10.9802,-13.26811 3.254,-3.46716 14.3485,-17.34339 15.0722,-18.85121 0.5362,-1.11713 1.4434,-2.57738 4.493,-7.23194 1.0484,-1.60009 5.2892,-10.32592 7.2868,-14.99305 1.0796,-2.52237 2.3747,-5.43789 2.8779,-6.47895 0.9318,-1.92756 3.7054,-9.516163 4.5303,-12.394669 0.2502,-0.87312 0.6161,-2.00047 0.8131,-2.50522 0.1971,-0.50475 0.6243,-2.886 0.9495,-5.29167 0.3252,-2.40566 0.8,-5.5502 1.0553,-6.98786 0.2552,-1.43766 0.3959,-3.18391 0.3128,-3.88056 -0.083,-0.69665 -0.2053,-3.33039 -0.2714,-5.85275 -0.066,-2.52236 -0.2989,-6.01486 -0.5173,-7.76111 -0.2185,-1.74625 -0.5687,-4.84188 -0.7783,-6.87917 -0.2097,-2.03729 -0.6096,-4.89479 -0.8888,-6.35 -0.2792,-1.45521 -0.6779,-3.59833 -0.886,-4.7625 -0.2082,-1.16416 -0.7539,-3.70416 -1.2127,-5.64444 -0.4589,-1.94028 -0.9327,-4.55965 -1.053,-5.82084 -0.2085,-2.18495 -1.9456,-12.00332 -2.6527,-14.99305 -0.1835,-0.77611 -0.4841,-2.57766 -0.6678,-4.00344 -0.1838,-1.42579 -0.4104,-2.66854 -0.5035,-2.76168 -0.1904,-0.19046 -1.0846,-0.32284 -4.6124,-0.68287 -2.1578,-0.22021 -2.4154,-0.18333 -2.2229,0.31829 0.4036,1.0517 1.9847,7.55173 2.3455,9.64232 0.1968,1.14042 0.5862,3.26412 0.8654,4.71932 0.8654,4.51096 1.665,8.90355 2.0227,11.1125 0.1885,1.16417 0.4203,2.51355 0.515,2.99861 0.7032,3.60115 0.682,22.83218 -0.032,28.75139 -0.117,0.97014 -0.4399,4.06577 -0.7175,6.87917 -0.8847,8.96495 -1.2071,11.39946 -1.8922,14.28751 -0.5999,2.52925 -1.9558,6.561376 -2.8472,8.466666 -1.0255,2.19228 -3.887,9.407713 -3.887,9.801463 0,0.2554 -0.1396,0.61518 -0.3102,0.79951 -0.3259,0.35195 -3.8184,9.12328 -3.9964,10.03653 -0.057,0.29104 -0.2027,0.60854 -0.3243,0.70555 -0.1217,0.097 -0.8125,1.52576 -1.5352,3.175 -0.7226,1.64924 -1.5389,3.42519 -1.814,3.94656 -0.2751,0.52137 -1.2897,3.22012 -2.2546,5.99722 -0.965,2.7771 -2.0573,5.68428 -2.4275,6.46039 -0.3702,0.77611 -1.0306,2.3382 -1.4676,3.47132 -0.437,1.13311 -1.0481,2.13342 -1.3581,2.22289 -0.3099,0.0895 -1.0129,0.3927 -1.5622,0.67382 -1.3587,0.69537 -2.4667,0.6419 -3.4601,-0.16699 l -0.8328,-0.67812 0.6473,-1.70313 c 0.3561,-0.93672 0.793,-2.33813 0.971,-3.11424 1.1612,-5.06308 2.0705,-9.87004 2.2688,-11.99444 0.1268,-1.3582 0.5257,-4.29507 0.8864,-6.52639 0.8352,-5.16615 0.9843,-7.49844 1.2518,-19.57917 0.3244,-14.653389 -0.1705,-17.472849 -5.7566,-32.797519 -1.9686,-5.40101 -5.6393,-10.02464 -11.3512,-14.29832 -1.4263,-1.06715 -2.9293,-2.23613 -3.3401,-2.59774 -0.4107,-0.36161 -1.858,-1.43406 -3.2162,-2.38323 -1.3582,-0.94917 -3.2573,-2.29183 -4.2202,-2.98369 -1.4653,-1.05279 -1.9442,-1.22163 -2.9372,-1.03535 -1.7516,0.32861 -2.1912,-0.22859 -2.1912,-2.77732 0,-3.31833 2.5971,-10.56233 5.1234,-14.29047 0.5776,-0.85236 1.2089,-1.80486 1.403,-2.11667 0.194,-0.3118 1.8609,-2.53152 3.7041,-4.9327 1.8433,-2.40119 3.7116,-4.86181 4.1518,-5.46806 2.3582,-3.24791 6.9617,-8.16912 9.4959,-10.1514 1.0788,-0.84381 3.6257,-2.96295 5.6598,-4.7092 6.0877,-5.2261 8.6498,-7.11739 14.329,-10.57724 3.1344,-1.90956 4.7445,-3.19262 4.4176,-3.52043 -0.1223,-0.12263 -0.9161,0.24137 -1.7639,0.80889 -0.8479,0.56752 -3.6847,2.18134 -6.3041,3.58626 -2.6193,1.40493 -5.9531,3.41074 -7.4083,4.45737 -1.4552,1.04664 -3.3999,2.39077 -4.3215,2.98696 -0.9217,0.59619 -1.6757,1.22912 -1.6757,1.4065 0,0.17739 -0.2046,0.32252 -0.4546,0.32252 -0.5661,0 -4.3634,3.26871 -8.5413,7.35242 -1.7462,1.7069 -4.8418,4.59077 -6.8791,6.40859 -5.8204,5.19338 -13.2938,12.94146 -15.5646,16.13662 -1.1409,1.60528 -2.0743,3.0129 -2.0743,3.12805 0,0.11514 -0.3975,1.00068 -0.8833,1.96786 -0.4857,0.96718 -0.7875,1.91335 -0.6705,2.1026 0.1169,0.18924 0.1171,0.84972 3e-4,1.46773 -0.1722,0.91165 -0.4956,1.2401 -1.7144,1.74099 -1.9187,0.78858 -1.9661,0.78503 -3.508,-0.26275 -1.043,-0.70869 -1.3166,-1.13544 -1.4049,-2.19091 -0.1175,-1.40635 0.3747,-0.98031 -7.2517,-6.27623 -1.1165,-0.77536 -2.6854,-1.96899 -3.4865,-2.65251 -0.801,-0.68353 -3.0011,-2.07623 -4.8892,-3.0949 -1.8881,-1.01867 -4.2489,-2.3835 -5.2464,-3.03297 -7.7745,-5.06223 -8.3567,-5.37427 -13.5653,-7.27094 -2.0738,-0.75513 -5.0405,-1.86313 -6.5927,-2.46222 -3.9138,-1.51057 -18.5212,-5.13331 -23.6361,-5.86193 -5.0934,-0.72556 -19.6502,-0.8422 -27.9681,-0.22409 -4.4779,0.33276 -15.4125,2.18229 -16.3731,2.76944 -0.1342,0.082 -2.078,0.6155 -4.3194,1.18549 -2.2415,0.56999 -5.5448,1.6932 -7.3407,2.49604 -4.9277,2.20279 -5.4789,2.43032 -8.9098,3.67726 -3.6109,1.3124 -11.0306,4.7496 -12.8764,5.9651 -3.6449,2.40025 -5.2681,3.38959 -5.5613,3.38959 -0.1796,0 -0.6289,0.33468 -0.9985,0.74373 -0.5711,0.63205 -0.9344,0.71274 -2.4192,0.53733 -1.4038,-0.16584 -2.1016,-0.0387 -3.5515,0.64726 -2.3472,1.11036 -8.9633,3.35905 -9.8708,3.35484 -1.2412,-0.006 -14.1243,4.27598 -16.0265,5.32645 -0.3047,0.16829 -2.2209,1.10469 -4.2582,2.08087 -2.0373,0.97619 -4.3392,2.24198 -5.1153,2.81286 -0.7761,0.57088 -3.5256,2.48979 -6.1101,4.26424 -2.5844,1.77445 -6.0769,4.37422 -7.7611,5.77726 -3.0298,2.52407 -16.9175,16.38167 -19.83,19.78711 -0.8298,0.97014 -2.1869,2.47826 -3.016,3.35139 -1.7214,1.81286 -4.2631,4.99556 -6.3217,7.91575 -3.0174,4.28033 -5.0235,6.8207 -7.2604,9.19398 -2.5006,2.65296 -5.1624,5.587146 -8.7454,9.640159 -1.9307,2.18387 -3.3824,3.63892 -7.6288,7.64595 -3.9735,3.74966 -11.1241,9.64733 -13.3752,11.03177 -0.861,0.52947 -2.8119,1.93092 -4.3353,3.11433 -3.2015,2.4868 -8.3528,5.88833 -10.7778,7.11677 -0.9216,0.46687 -1.6757,0.98191 -1.6757,1.14453 0,0.4449 3.9279,2.74128 6.4341,3.76161 9.0745,3.69442 16.3629,5.4767 26.5489,6.49215 9.5322,0.95027 24.6695,-1.08496 31.7725,-4.27189 2.0111,-0.90231 2.2723,-1.13307 2.2723,-2.00771 0,-0.62056 0.2745,-1.15965 0.7378,-1.44899 0.8438,-0.52699 3.8538,-0.86167 4.3878,-0.48786 0.9735,0.68145 1.2312,2.40254 1.196,7.98852 -0.028,4.43999 0.1348,6.70228 0.7148,9.94078 1.0994,6.13901 2.1374,10.0945 2.8589,10.89543 0.3497,0.38806 0.7407,1.18181 0.869,1.76389 0.4281,1.94234 2.5601,7.14444 4.1206,10.05417 0.3642,0.6791 2.3782,4.67182 4.4755,8.87272 2.0973,4.2009102 4.4971,8.6459001 5.3328,9.8777801 0.8358,1.23188002 2.5078,3.66853 3.7155,5.41478 1.2077,1.74625 2.5982,3.96875 3.09,4.93888 1.1683,2.3046599 3.3069,4.7624999 4.144,4.7624999 0.3646,0 1.9794,-0.63363 3.5885,-1.40807 2.1555,-1.03738 3.3901,-1.41441 4.6896,-1.43214 1.8407,-0.0251 3.3887,-0.2780799 7.232,-1.1818799 6.2614,-1.47245 20.4028,0.49361 25.7527,3.5803799 7.2753,4.19767 10.8949,9.6391 10.9918,16.52413 0.049,3.51852 -0.7107,10.39432 -1.4942,13.51485 -1.072,4.26942 -1.0845,4.25442 4.6655,5.59145 5.7852,1.34523 6.4885,1.44384 13.53,1.89707 3.1044,0.19982 7.1526,0.48667 8.9958,0.63745 4.2474,0.34745 18.5757,0.12014 22.7542,-0.36098 z m 6.7028,-39.4061 c -4.5083,-0.8473 -11.5037,-5.2040299 -15.7453,-9.8061299 -0.6991,-0.75854998 -2.3075,-2.49044 -3.5741,-3.84864 -3.4263,-3.67403 -7.6807,-8.9519901 -9.0792,-11.2637501 -0.6791,-1.12252 -1.5668,-2.46051 -1.9725,-2.97332 -0.4058,-0.5128 -0.8461,-1.32925 -0.9785,-1.81431 -0.3973,-1.45604 -1.6352,-7.4532 -1.6352,-7.92236 0,-0.72276 1.2145,-1.89261 2.2291,-2.14728 0.524,-0.1315 1.0399,-0.38025 1.1465,-0.55278 0.3254,-0.52653 1.3872,-0.35488 3.3728,0.54524 1.0421,0.47241 2.6091,0.95542 3.4822,1.07335 0.8731,0.11793 2.5132,0.3896 3.6447,0.60372 1.2212,0.2311 3.4432,0.29786 5.468,0.16428 4.2593,-0.281 4.9057,-0.38092 8.1734,-1.2635 1.4552,-0.39305 3.0694,-0.71836 3.5871,-0.72293 1.4147,-0.0125 2.0574,-0.36093 2.0574,-1.11545 0,-0.37338 0.2381,-0.77026 0.5291,-0.88194 0.2911,-0.11169 0.5292,-0.4033 0.5292,-0.64804 0,-0.24557 0.5928,-0.52925 1.3229,-0.63305 0.7276,-0.10344 1.5623,-0.28533 1.8549,-0.4042 0.3249,-0.13201 1.4919,0.48632 2.9986,1.58874 4.479,3.27733 8.2795,4.50431 14.8139,4.78265 3.8981,0.16605 4.4407,0.1083 6.8527,-0.72918 3.3033,-1.14693 4.2786,-1.14726 5.424,-0.002 1.4246,1.42458 1.4857,2.54424 0.3,5.49197 -0.5744,1.4279 -1.3244,3.54869 -1.6666,4.71286 -0.3423,1.16416 -1.0071,2.98792 -1.4774,4.05278 -0.4703,1.06488 -1.0953,2.65238 -1.3889,3.5277802 -2.4737,7.3762399 -8.6086,14.4369199 -15.6128,17.9687499 -3.8909,1.9619699 -10.6066,2.9776399 -14.656,2.2165699 z m 8.2902,-6.2431699 c 5.5577,-1.59815 10.6602,-6.14156 13.8703,-12.3504899 1.6283,-3.1493302 4.5576,-10.5553402 4.6047,-11.6416602 0.043,-0.9978 -0.038,-1.06445 -1.4213,-1.16524 -1.408,-0.1026 -1.4764,-0.06 -1.6966,1.05833 -0.1262,0.64088 -0.407,2.03837 -0.6238,3.10552 -0.2169,1.06715 -0.8425,2.60388 -1.3902,3.41495 -0.5477,0.81107 -0.9958,1.57156 -0.9958,1.68998 0,0.42184 -1.6043,2.4943202 -2.6022,3.3617402 -1.8093,1.5725799 -5.2337,2.1930499 -7.5832,1.3739999 -1.6987,-0.59216 -1.9094,-1.3167399 -1.1352,-3.9033401 1.4612,-4.88202 1.5916,-5.77419 1.1392,-7.79568 -0.9214,-4.11722 -1.051,-4.3849 -2.4368,-5.03322 -0.7241,-0.33878 -1.766,-0.9311 -2.3152,-1.31626 -0.781,-0.54762 -1.1655,-0.62148 -1.7639,-0.33878 -1.4602,0.68984 -2.8973,1.10356 -5.8432,1.68219 -1.6288,0.31991 -3.5377,0.78498 -4.242,1.03349 -3.4247,1.20828 -10.688,1.72302 -15.8155,1.12082 -2.3872,-0.28038 -2.5576,-0.2555 -2.5576,0.37353 0,1.66207 3.449,6.42542 9.8778,13.6418801 5.2554,5.8994 8.1282,8.38275 11.863,10.25497 4.3834,2.19737 7.1599,2.55693 11.0675,1.43327 z m 9.8369,-22.9254801 c 0.4105,-0.87348 0.7465,-1.74863 0.7465,-1.94477 0,-0.19615 -0.625,-0.35662 -1.389,-0.35662 h -1.3889 l 0.1771,1.32291 c 0.4568,3.41334 0.6595,3.52027 1.8543,0.97848 z m 86.2951,0.16805 c -0.3813,-0.61696 0.1841,-1.1383 0.7369,-0.67949 0.2738,0.22721 0.4978,0.55242 0.4978,0.72268 0,0.42531 -0.9661,0.39151 -1.2347,-0.0432 z m -48.27,-29.79952 c -0.5366,-0.53662 -0.7716,-1.61127 -0.6578,-3.00881 0.024,-0.29104 -0.117,-1.44148 -0.3126,-2.55652 -0.1955,-1.11504 -0.4997,-3.29107 -0.6758,-4.83561 -0.1762,-1.54454 -0.7805,-4.2041 -1.3429,-5.91014 -0.5624,-1.70604 -1.2948,-3.95674 -1.6274,-5.00154 -0.7004,-2.19979 -4.1864,-9.40638 -4.9679,-10.26991 -0.7543,-0.83343 -0.6627,-2.91292 0.1752,-3.9781 0.3881,-0.49333 0.7056,-1.28389 0.7056,-1.75679 0,-1.12103 0.6224,-1.63677 4.2333,-3.50795 3.9746,-2.05961 5.6204,-3.19097 6.7934,-4.66997 1.5943,-2.010253 6.1467,-11.270969 6.4127,-13.045379 0.3178,-2.11915 1.4222,-2.75342 4.5353,-2.60469 l 2.1905,0.10465 0.4283,1.41112 c 0.2356,0.77611 0.6817,2.55824 0.9915,3.9603 0.9571,4.332786 2.5984,7.977016 6.6371,14.736919 2.9895,5.0037 3.4174,5.59524 5.972,8.25599 2.6147,2.72347 3.0886,3.47598 3.0614,4.86179 -0.022,1.13588 -1.3189,2.32389 -2.9791,2.72974 -2.5874,0.63248 -6.799,3.0571 -9.3529,5.38444 -5.0591,4.61027 -6.931,6.83051 -10.0576,11.92915 -0.9519,1.55222 -1.8263,2.9016 -1.9431,2.99861 -0.1169,0.097 -0.7236,1.07876 -1.3483,2.18166 -1.196,2.11138 -1.8187,2.49186 -4.8424,2.95868 -1.0906,0.16837 -1.5814,0.0794 -2.0285,-0.36764 z m 6.8283,-13.25592 c 2.2288,-3.81627 10.9809,-12.34747 14.4542,-14.08935 2.663,-1.33554 2.6494,-1.26643 0.7239,-3.68631 -1.8502,-2.32523 -3.9509,-5.73016 -6.3456,-10.28573 -0.8067,-1.53456 -1.6046,-3.02824 -1.7731,-3.31928 -0.1686,-0.29104 -0.7187,-1.45021 -1.2224,-2.575933 -0.5038,-1.12572 -1.0371,-1.97189 -1.1852,-1.88038 -0.1481,0.0915 -0.8167,1.2231 -1.4858,2.514653 -1.3631,2.63114 -4.3184,6.09361 -5.8625,6.86865 -0.5596,0.28085 -1.2555,0.6966 -1.5465,0.92389 -0.2911,0.22729 -1.8389,1.09111 -3.4396,1.91961 -1.6008,0.82848 -2.9104,1.70672 -2.9104,1.95162 0,0.2449 0.6496,1.59162 1.4435,2.99271 0.794,1.4011 1.7562,3.27681 2.1383,4.16826 1.3434,3.13393 3.8131,10.96776 4.4009,13.95941 0.3268,1.6633 0.7211,3.02418 0.8763,3.02418 0.1551,0 0.9354,-1.1187 1.734,-2.486 z m -117.0614,11.23489 c -0.2328,-0.23284 -0.4233,-1.17714 -0.4233,-2.09846 0,-4.05387 -4.395,-14.39109 -8.6435,-20.33011 -2.7285,-3.81417 -3.7014,-4.65663 -5.3075,-4.59625 -2.1539,0.081 -2.868,-1.23289 -1.5712,-2.89074 0.3794,-0.48507 0.6934,-0.98195 0.6977,-1.10418 0,-0.12223 1.1002,-1.35211 2.4354,-2.73307 1.3352,-1.38097 2.8553,-3.38506 3.3781,-4.45354 0.5227,-1.06848 1.1403,-2.14047 1.3723,-2.3822 1.4846,-1.54657 3.7819,-5.421563 4.548,-7.671453 1.1657,-3.423296 2.1493,-8.305326 1.8854,-9.357136 -0.1139,-0.45345 -0.052,-1.23235 0.1377,-1.73088 0.2674,-0.70351 0.5886,-0.90643 1.4348,-0.90643 0.5997,0 1.3784,-0.15417 1.7304,-0.3426 0.4289,-0.22949 1.1317,-0.20029 2.129,0.0884 1.3148,0.38068 1.5624,0.62495 2.1186,2.09031 0.3464,0.91259 1.0052,2.15921 1.4639,2.77026 2.529,3.36904 12.2632,12.224309 17.0756,15.533769 1.6094,1.10675 2.8157,1.55489 7.4581,2.77058 1.6227,0.42493 1.919,0.98798 1.4027,2.66563 -0.5565,1.80834 -0.729,1.99899 -2.374,2.62339 -1.6185,0.61439 -5.5695,3.516 -6.8393,5.02285 -0.3802,0.45123 -1.3979,1.8523 -2.2616,3.11348 -0.8636,1.26118 -2.3824,3.32493 -3.3751,4.58611 -0.9927,1.26118 -2.4883,3.35599 -3.3236,4.65514 -0.8353,1.29914 -1.7438,2.54889 -2.0189,2.77722 -0.2751,0.22833 -0.5002,0.65426 -0.5002,0.94652 0,0.29225 -0.635,1.46164 -1.4111,2.59864 -0.7761,1.13701 -1.4111,2.14801 -1.4111,2.24667 0,0.18086 -2.5077,3.76362 -3.8925,5.56123 -0.6841,0.88805 -0.948,0.97014 -3.1194,0.97014 -1.3745,0 -2.5501,-0.17802 -2.7954,-0.42333 z m 5.8365,-10.77737 c 0.2296,-0.53357 0.6216,-1.28661 0.8711,-1.67341 3.0847,-4.78065 5.4487,-8.28038 6.0782,-8.99811 0.4254,-0.48507 1.0802,-1.34217 1.4551,-1.90466 0.3749,-0.56249 0.9198,-1.37227 1.2108,-1.79951 0.291,-0.42723 0.8397,-1.23701 1.2193,-1.79951 1.341,-1.98713 4.2657,-5.21519 5.6027,-6.18377 l 1.354,-0.9809 -1.7067,-0.83566 c -2.486,-1.21717 -3.6458,-2.01023 -5.4185,-3.70521 -0.869,-0.83084 -3.0087,-2.71717 -4.755,-4.19185 -1.7462,-1.47468 -4.1701,-3.612723 -5.3865,-4.751203 -2.3658,-2.21445 -3.2538,-2.56194 -3.261,-1.2762 0,0.43656 -0.4539,1.66687 -1.0033,2.73402 -2.1764,4.227883 -2.6812,5.129003 -3.0627,5.468063 -0.6239,0.55443 -3.451,4.73329 -4.7106,6.96289 -0.6288,1.1132 -1.4057,2.17083 -1.7264,2.35029 -0.5024,0.28114 -0.3643,0.56253 0.9976,2.03295 4.0639,4.3878 9.2845,13.24552 10.0505,17.05248 0.5187,2.57794 1.4526,3.2169 2.1914,1.4993 z m -28.5537,-56.366319 c -0.1025,-0.10256 -0.8831,-0.30517 -1.7345,-0.45023 -1.4182,-0.24165 -1.5526,-0.35466 -1.6034,-1.34815 -0.068,-1.3382 0.6067,-2.14648 4.2887,-5.13445 6.1734,-5.00976 10.4494,-7.445 15.7097,-8.94698 1.8372,-0.52458 3.608,-1.09317 3.9351,-1.26353 1.0664,-0.55533 8.8527,-2.47004 12.1052,-2.97679 5.9314,-0.92408 17.3129,-0.54729 18.0198,0.59656 0.3629,0.58719 0.2325,3.18642 -0.1806,3.59902 -0.2781,0.27775 -2.1635,0.4149 -5.7747,0.42006 -9.5075,0.0136 -13.5548,0.56112 -21.0603,2.84912 -6.3692,1.9416 -7.4249,2.34105 -10.0131,3.78841 -2.3057,1.28939 -8.4594,5.84384 -9.2133,6.81892 -1.1422,1.47735 -3.8232,2.70337 -4.4786,2.04804 z m 121.0717,-5.71396 c -0.2911,-0.11015 -0.6561,-0.41511 -0.8113,-0.6777 -0.1552,-0.26259 -0.5747,-0.47744 -0.9324,-0.47744 -0.8487,0 -1.1787,-0.90948 -0.6814,-1.87764 0.5559,-1.08208 2.1258,-2.70847 2.6145,-2.70847 0.2257,0 1.0776,-0.48343 1.8933,-1.07428 2.2756,-1.64845 8.0787,-4.45764 10.4409,-5.05429 7.1899,-1.81605 14.059,-2.21217 19.7555,-1.13926 5.919,1.11481 15.2238,3.92337 17.6536,5.32853 1.8552,1.07286 3.2196,3.74289 2.6621,5.20933 -0.3171,0.83392 -0.5613,0.9633 -1.8186,0.9633 -0.9183,0 -1.7823,-0.25949 -2.3494,-0.70555 -0.4933,-0.38806 -1.1431,-0.70556 -1.4438,-0.70556 -0.3008,0 -1.5961,-0.54298 -2.8785,-1.20663 -2.9064,-1.50403 -5.7019,-2.40495 -11.1198,-3.58361 -3.5951,-0.78211 -4.7386,-0.88755 -7.5847,-0.69937 -3.0174,0.1995 -7.2218,0.96089 -11.1125,2.01238 -2.2955,0.62036 -8.3201,3.91019 -9.7148,5.30489 -1.2129,1.21291 -3.0764,1.65767 -4.5727,1.09137 z m -188.207,87.575799 c 2.7613,-0.35323 2.9684,-0.54319 2.6064,-2.39074 -1.1221,-5.72707 -1.4453,-7.8906 -1.6201,-10.84575 -0.242,-4.08902 -0.4304,-4.40705 -2.1678,-3.65915 -2.0471,0.88121 -5.5023,1.81805 -8.9946,2.4388 -1.7762,0.31571 -4.0232,0.79244 -4.9933,1.0594 -1.7484,0.48112 -8.9533,1.24681 -12.3472,1.31218 -0.9702,0.0187 -3.3514,-0.0851 -5.2917,-0.23063 -1.9403,-0.14553 -4.5597,-0.32928 -5.8208,-0.40833 -1.2612,-0.079 -4.079,-0.52296 -6.2618,-0.98645 -4.4943,-0.95429 -4.7856,-0.80398 -2.7976,1.44331 0.6442,0.72816 1.6155,1.91924 2.1585,2.64684 1.1159,1.49509 1.9032,1.6568 2.8693,0.58928 0.7884,-0.87114 1.7361,-0.76021 4.4796,0.52435 1.0148,0.47511 2.7975,1.1284 3.9617,1.45177 2.8654,0.79589 6.4474,1.99036 10.0542,3.35268 6.7582,2.55269 9.7633,3.19409 17.9916,3.84016 3.0211,0.2372 3.2896,0.23121 6.1736,-0.13772 z m -30.868,-0.36788 c -1.1529,-0.66924 -6.7067,-2.39896 -6.9432,-2.16246 -0.4176,0.41761 0.3481,0.88983 2.0914,1.28982 1.0192,0.23386 2.4882,0.63911 3.2643,0.90055 1.8741,0.63134 2.6982,0.61684 1.5875,-0.0279 z m -19.05,-5.97767 c 0,-0.0905 -0.6956,-0.94774 -1.5457,-1.9049 -1.3321,-1.49992 -4.1507,-5.51462 -5.3582,-7.63198 -0.2077,-0.3641 -1.557,-1.11463 -2.9986,-1.66786 -1.4416,-0.55323 -3.551,-1.48523 -4.6875,-2.07111 -1.1365,-0.58589 -2.1508,-0.98078 -2.254,-0.87755 -0.6362,0.63615 4.7683,6.06361 11.3433,11.39149 1.9715,1.59765 5.5007,3.36962 5.5007,2.76191 z m 325.9346,-40.99474 c 0.27,-0.93673 0.7594,-2.33814 1.0875,-3.11425 1.2946,-3.06175 2.2282,-5.39232 3.0385,-7.58472 0.466,-1.26119 1.005,-2.610563 1.1977,-2.998623 0.6096,-1.22758 2.1321,-5.551586 2.857,-8.113876 1.1939,-4.21973 1.9581,-9.15965 2.6197,-16.93335 0.099,-1.16416 0.3468,-3.22791 0.5505,-4.58611 0.5711,-3.80832 0.8185,-23.06121 0.3445,-26.81111 -0.4882,-3.86248 -2.0549,-13.29283 -2.4909,-14.99305 -0.1741,-0.6791 -0.5809,-2.74285 -0.904,-4.58612 -0.793,-4.52474 -3.2084,-13.64242 -3.8607,-14.57376 -0.9848,-1.40593 -0.6767,-2.60336 0.946,-3.67748 1.5948,-1.0556 3.6017,-1.26017 6.5956,-0.67228 l 1.5423,0.30287 -0.182,-1.18481 c -0.1001,-0.65165 -0.4296,-1.97856 -0.7323,-2.9487 -0.3027,-0.97014 -0.8743,-2.86861 -1.2703,-4.21883 -0.9595,-3.27189 -1.3265,-3.61691 -2.8755,-2.70358 -0.6598,0.38902 -2.2315,1.29012 -3.4927,2.00243 -1.2612,0.71232 -2.3724,1.40399 -2.4694,1.53705 -0.097,0.13306 -0.732,0.61608 -1.4111,1.07338 -0.6791,0.4573 -1.3935,1.00773 -1.5875,1.22318 -0.1941,0.21545 -1.0672,0.9293 -1.9403,1.58634 -0.8731,0.65703 -1.8256,1.45633 -2.1167,1.77622 -0.6671,0.73325 -4.6098,4.05261 -6.7028,5.64313 -3.4531,2.62411 -9.5908,9.62024 -14.4074,16.42234 -1.374,1.94028 -2.6282,3.68653 -2.7873,3.88056 -0.7759,0.94652 -2.565,3.78755 -3.0402,4.82766 -1.3271,2.90496 -2.264,5.42147 -2.1107,5.66952 0.092,0.14891 1.0697,0.84061 2.1725,1.53713 1.1028,0.69652 2.6401,1.85837 3.4162,2.5819 1.4928,1.39167 6.4044,5.31196 9.4093,7.51027 2.7168,1.98757 5.8615,5.11187 7.3708,7.32297 1.6324,2.3915 4.563,8.16326 4.563,8.98685 0,0.32561 0.1772,0.92325 0.3939,1.32807 1.0148,1.89629 3.8924,11.26594 4.3984,14.32204 0.7782,4.69934 1.1951,14.287626 0.8175,18.803889 -0.2676,3.20105 -0.5019,11.80605 -0.3627,13.31887 0.086,0.93401 0.9214,-0.21394 1.4236,-1.95602 z m 17.6996,-119.619119 c 0.016,-0.72761 0.072,-1.71979 0.1241,-2.20486 0.052,-0.48507 0.2812,-2.9457 0.5084,-5.46806 0.2272,-2.52236 0.496,-5.10205 0.5975,-5.73264 0.248,-1.54169 -0.4118,-1.50397 -2.3718,0.13559 -0.843,0.70517 -2.6727,2.052 -4.066,2.99296 -3.0889,2.08603 -3.5064,2.61528 -1.8431,2.33639 0.6608,-0.11079 1.4628,-0.30503 1.7824,-0.43164 0.3822,-0.15141 0.8984,0.10997 1.5083,0.76374 0.9133,0.97896 1.1264,1.55808 1.9887,5.40366 0.7934,3.53783 1.7177,4.6883 1.7715,2.20486 z"
       id="path1106"
       inkscape:connector-curvature="0" />
  </g>
</svg>
