<?xml version="1.0" encoding="UTF-8" standalone="no"?>
<!-- Created with Inkscape (http://www.inkscape.org/) -->

<svg
   xmlns:dc="http://purl.org/dc/elements/1.1/"
   xmlns:cc="http://creativecommons.org/ns#"
   xmlns:rdf="http://www.w3.org/1999/02/22-rdf-syntax-ns#"
   xmlns:svg="http://www.w3.org/2000/svg"
   xmlns="http://www.w3.org/2000/svg"
   xmlns:sodipodi="http://sodipodi.sourceforge.net/DTD/sodipodi-0.dtd"
   xmlns:inkscape="http://www.inkscape.org/namespaces/inkscape"
   width="311.73355mm"
   height="293.63336mm"
   viewBox="0 0 311.73355 293.63336"
   version="1.1"
   id="svg8"
   inkscape:version="0.92.5 (2060ec1f9f, 2020-04-08)"
   sodipodi:docname="e_06.svg">
  <defs
     id="defs2" />
  <sodipodi:namedview
     id="base"
     pagecolor="#ffffff"
     bordercolor="#666666"
     borderopacity="1.0"
     inkscape:pageopacity="0.0"
     inkscape:pageshadow="2"
     inkscape:zoom="0.030935922"
     inkscape:cx="5815.8261"
     inkscape:cy="1331.5432"
     inkscape:document-units="mm"
     inkscape:current-layer="layer1"
     showgrid="false"
     inkscape:window-width="1920"
     inkscape:window-height="1029"
     inkscape:window-x="0"
     inkscape:window-y="0"
     inkscape:window-maximized="1"
     fit-margin-top="0"
     fit-margin-left="0"
     fit-margin-right="0"
     fit-margin-bottom="0"
     inkscape:showpageshadow="false" />
  <metadata
     id="metadata5">
    <rdf:RDF>
      <cc:Work
         rdf:about="">
        <dc:format>image/svg+xml</dc:format>
        <dc:type
           rdf:resource="http://purl.org/dc/dcmitype/StillImage" />
        <dc:title></dc:title>
      </cc:Work>
    </rdf:RDF>
  </metadata>
  <g
     inkscape:label="Calque 1"
     inkscape:groupmode="layer"
     id="layer1"
     transform="translate(4397.5931,228.26688)">
    <path
       style="fill:#000000;stroke-width:0.35277778"
       d="m -4134.8302,65.237886 c 0.081,-0.0707 0.4876,-0.30552 0.9037,-0.52175 0.5938,-0.30848 0.85,-0.28078 1.1898,0.1286 0.3692,0.44487 0.236,0.52175 -0.9037,0.52175 -0.7352,0 -1.2706,-0.0579 -1.1898,-0.1286 z m -141.3169,-7.16911 c -9.5201,-1.22734 -12.3607,-1.4727 -15.2425,-1.31656 -3.3861,0.18347 -7.273,-0.34785 -11.745,-1.60546 -1.6072,-0.452 -4.0866,-0.70596 -8.2902,-0.84918 -10.2904,-0.35058 -18.8171,-2.2698 -25.7528,-5.79654 -8.4443,-4.29384 -19.34,-12.4613 -26.3075,-19.72021 -2.913,-3.03486 -9.0608,-10.38787 -12.4234,-14.85891 -1.9574,-2.602719 -5.2638,-7.9984287 -7.3236,-11.9515187 -0.788,-1.51236001 -1.5832,-2.98787 -1.7671,-3.27891 -0.3112,-0.49241 -2.9359,-6.0192304 -5.0576,-10.6496803 -0.5057,-1.10365 -0.9194,-2.16474 -0.9194,-2.358 0,-0.19325 -0.3947,-1.27464 -0.8771,-2.40309 -1.8975,-4.43861 -4.8237,-16.90094 -5.2861,-22.512841 -0.5204,-6.31609 -0.5886,-11.27851 -0.2277,-16.58055 0.5127,-7.53252 0.9494,-10.56133 1.9786,-13.72415 0.4481,-1.377 0.9963,-3.21801 1.2183,-4.09113 0.4614,-1.81499 2.6539,-8.12092 3.3731,-9.70139 0.2648,-0.58208 1.0806,-2.52677 1.8129,-4.32153 0.7322,-1.79475 1.4567,-3.26319 1.6099,-3.26319 0.1533,0 0.2786,-0.2562 0.2786,-0.56933 0,-0.31313 0.2991,-1.14657 0.6645,-1.85209 0.3655,-0.70551 1.1862,-2.31462 1.8237,-3.5758 0.6376,-1.26118 1.504,-2.84868 1.9253,-3.527776 0.664,-1.07017 1.7009,-2.87362 3.1438,-5.46806 0.7692,-1.38298 1.7909,-2.84917 3.2796,-4.70664 0.8307,-1.03643 1.5104,-2.04593 1.5104,-2.24333 0,-0.38911 0.1582,-0.57849 3.7588,-4.49851 3.7856,-4.12143 4.737,-5.00055 8.4089,-7.76981 2.6966,-2.03368 8.8473,-6.08477 10.6308,-7.0018 0.7517,-0.38653 1.833,-1.19358 2.4029,-1.79343 0.5699,-0.59986 1.3239,-1.09064 1.6757,-1.09064 0.3517,0 0.6395,-0.1504 0.6395,-0.33422 0,-0.18381 0.7869,-0.72943 1.7486,-1.21247 0.9617,-0.48305 2.9064,-1.62225 4.3215,-2.53157 3.7416,-2.4042 4.1287,-2.64178 6.3961,-3.92501 3.314,-1.87553 15.0116,-5.64392 21.5769,-6.95094 2.3283,-0.46353 7.4083,-1.48474 11.2889,-2.26935 3.8805,-0.78462 9.278,-1.8383 11.9944,-2.34152 11.0012,-2.03799 14.1675,-2.65026 15.3458,-2.96739 2.3379,-0.62921 11.4786,-1.24102 17.9917,-1.20421 11.1253,0.0629 19.7719,1.85365 33.1578,6.86721 6.2748,2.35016 9.0101,3.63517 14.7816,6.94423 2.6405,1.51389 6.0709,3.43472 7.6231,4.26851 7.1319,3.83093 10.8247,7.54162 11.4737,11.52925 0.1778,1.09235 0.5461,2.24196 0.8186,2.5547 0.5023,0.57672 6.5556,9.21066 7.8186,11.15194 1.3122,2.01693 5.305,9.183 6.3882,11.46528 1.1032,2.32424 1.695,3.70982 4.151,9.717556 0.7851,1.92055 2.3291,7.64701 3.3248,12.33105 0.2063,0.97014 0.4758,3.51014 0.5991,5.64445 0.1232,2.1343 0.3741,5.07118 0.5576,6.52638 1.0456,8.29403 -0.047,29.80957 -1.7914,35.269241 -0.3895,1.219419 -0.7082,2.412459 -0.7082,2.651199 0,1.02396 -2.6262,8.281461 -3.6393,10.057341 -1.8359,3.21801 -5.0173,9.36433 -8.0346,15.5222203 -4.0277,8.21987 -4.187,8.52216 -5.0311,9.54684 -0.4166,0.50583 -1.3132,1.8288 -1.9923,2.93995 -0.6791,1.11115 -2.0018,3.00275 -2.9394,4.2035497 -2.1813,2.793739 -10.2154,11.666909 -12.0327,13.289359 -0.7646,0.68263 -2.9871,2.88623 -4.9389,4.89691 -1.9518,2.01067 -4.1925,4.10046 -4.9793,4.64397 -0.7868,0.54351 -2.7712,2.32477 -4.4097,3.95836 -1.6385,1.63359 -3.2574,3.07117 -3.5975,3.19463 -0.6302,0.22882 -4.1167,2.74237 -5.3587,3.86337 -0.3771,0.34039 -1.3685,0.94944 -2.203,1.35344 -0.8346,0.40401 -1.5941,0.85872 -1.6879,1.01047 -0.094,0.15176 -0.8488,0.3833 -1.6777,0.51454 -1.2454,0.19719 -3.8942,1.37617 -8.2708,3.68134 -1.3033,0.68645 -4.9319,2.10709 -6.8183,2.66941 -1.0671,0.31813 -2.4165,0.72651 -2.9986,0.90753 -0.582,0.18101 -1.7727,0.43024 -2.6458,0.55385 -0.8731,0.1236 -3.7306,0.6015 -6.35,1.06199 -13.1662,2.31462 -14.6503,2.48018 -18.1681,2.02667 z m 11.6417,-6.95006 c 1.5522,-0.28168 3.616,-0.60916 4.5861,-0.72773 2.0532,-0.25095 9.6297,-1.76027 12.7,-2.52999 1.8639,-0.46726 14.8274,-6.68596 19.2744,-9.24603 2.1738,-1.25144 6.5588,-4.68617 6.8318,-5.35126 0.1194,-0.29104 1.4338,-1.40229 2.9208,-2.46944 1.487,-1.06715 4.0574,-3.3612 5.7119,-5.09788 1.6546,-1.73668 3.6417,-3.72106 4.4157,-4.40972 4.3745,-3.89187 11.2396,-11.4091487 13.3608,-14.6299587 1.1197,-1.70017 2.1279,-3.35443 2.2404,-3.67613 0.1125,-0.32171 0.5624,-0.9818 0.9996,-1.46687 0.7886,-0.87473001 2.2082,-3.55438 9.8119,-18.5208303 3.7873,-7.45443 6.0046,-13.052961 7.4752,-18.873611 1.2065,-4.77571 1.7505,-25.88686 0.9226,-35.80694 -0.9277,-11.1151 -2.8311,-18.43763 -7.4811,-28.779526 -0.574,-1.27665 -1.0437,-2.43074 -1.0437,-2.56465 0,-0.1339 -0.3733,-0.83561 -0.8296,-1.55936 -0.4562,-0.72375 -1.3624,-2.34778 -2.0138,-3.60896 -0.6513,-1.26118 -2.2022,-3.80118 -3.4464,-5.64445 -1.2442,-1.84326 -2.648,-4.03148 -3.1195,-4.8627 -1.3606,-2.39843 -5.8012,-8.14142 -8.3786,-10.83591 -1.2992,-1.35819 -2.6649,-2.88327 -3.0349,-3.38906 -0.3824,-0.5228 -2.5426,-1.8717 -5.0062,-3.12611 -2.3834,-1.21357 -4.4922,-2.32977 -4.6863,-2.48044 -0.194,-0.15067 -2.8928,-1.54496 -5.9972,-3.09842 -8.4146,-4.21064 -18.9363,-7.8473 -26.8026,-9.2639 -3.3247,-0.59872 -11.794,-1.36603 -14.6488,-1.32715 -2.3463,0.032 -12.2513,1.12979 -15.6986,1.73996 -2.1343,0.37779 -4.8331,0.84021 -5.9972,1.02761 -2.6613,0.42842 -10.9019,1.98141 -13.9347,2.6261 -1.2612,0.26809 -3.6425,0.75091 -5.2917,1.07294 -1.6492,0.32203 -4.5861,0.96807 -6.5264,1.43564 -1.9403,0.46758 -4.7978,1.08667 -6.35,1.37576 -3.1191,0.58091 -4.6261,0.99627 -11.1125,3.06285 -3.8622,1.23052 -7.0891,2.49993 -8.8194,3.4695 -1.3005,0.72869 -5.4489,3.28571 -5.7929,3.57067 -0.8709,0.72142 -3.0824,2.06933 -3.395,2.06933 -0.1854,0 -0.3371,0.14644 -0.3371,0.32542 0,0.17898 -0.543,0.5046 -1.2065,0.7236 -0.6636,0.219 -1.3922,0.6219 -1.6192,0.89535 -0.2269,0.27344 -2.0391,1.44786 -4.027,2.60981 -1.988,1.16196 -3.8188,2.35886 -4.0685,2.65979 -0.2498,0.30093 -0.5921,0.54714 -0.7607,0.54714 -0.5949,0 -7.6457,5.64525 -9.5402,7.6385 -4.2478,4.46918 -5.128,5.48869 -6.8062,7.88372 -1.0197,1.45521 -1.9576,3.18624 -2.0844,3.84673 -0.1267,0.6605 -0.7511,1.85112 -1.3876,2.64583 -2.0293,2.533836 -2.4014,3.168606 -5.7075,9.735216 -4.2542,8.44978 -6.6682,14.89681 -9.3151,24.87735 -1.1628,4.3846 -1.87,20.05725 -1.14,25.26575 0.2273,1.62248 0.581,4.14058 0.7859,5.595791 0.39,2.770669 2.0682,9.60644 2.9199,11.89369 0.2735,0.73451 0.7659,2.2086 1.0943,3.27575 0.3283,1.06716 0.8817,2.57528 1.2297,3.35139 0.348,0.77611 1.0697,2.52236 1.6039,3.88056 0.5341,1.35819 1.6099,3.6600696 2.3907,5.1152796 0.7807,1.4552007 1.8564,3.5235907 2.3904,4.5964107 1.2622,2.53576999 4.7932,8.58225 6.1439,10.52099 4.0641,5.8332887 12.7448,15.8250587 17.4269,20.0590287 5.7406,5.19104 12.6546,10.60047 15.7342,12.31019 0.3881,0.21544 1.8516,1.04908 3.2524,1.85254 1.4007,0.80346 2.62,1.46083 2.7094,1.46083 0.089,0 1.1658,0.46257 2.3921,1.02794 5.4823,2.52773 12.4569,4.22475 18.5909,4.52346 3.4393,0.16748 4.0593,0.115 4.3287,-0.36639 0.2814,-0.50274 0.5559,-0.47099 2.6084,0.30156 1.2617,0.47489 2.7717,0.86343 3.3555,0.86343 0.5839,0 1.6519,0.26039 2.3732,0.57863 1.0157,0.44808 3.1024,0.63824 9.2491,0.84285 4.3656,0.14532 8.2032,0.37352 8.5279,0.50711 2.2243,0.91505 12.1249,0.94491 17.0485,0.0514 z m -7.7611,-46.4183687 c -5.483,-0.6391 -15.169,-4.11855001 -17.2455,-6.19501 -1.3645,-1.36451 -0.298,-4.87384 1.6395,-5.39464 1.3145,-0.3533304 2.4758,-0.0469 7.0431,1.85811 4.401,1.83563 7.6103,2.39462 14.031,2.44379 4.8036,0.0368 5.7563,-0.0546 7.8404,-0.75251 4.283,-1.43419 8.7059,-4.1364504 13.2363,-8.0870503 1.4057,-1.22582 2.7154,-2.22877 2.9104,-2.22877 0.8578,0 1.7656,1.45114 1.7656,2.82222 0,0.77611 -0.12,1.4111096 -0.2666,1.4111096 -0.1467,0 -0.4884,0.51594 -0.7594,1.14653 -0.4614,1.0736403 -1.8767,2.8742407 -4.7137,5.9972207 -0.661,0.72761 -1.2998,1.32291999 -1.4195,1.32291999 -0.1198,0 -0.8201,0.41205 -1.5563,0.91567 -1.9742,1.35043001 -5.6411,3.14564001 -8.2326,4.03043001 -1.8077,0.6172 -3.2619,0.80057 -7.0408,0.88784 -2.6193,0.0605 -5.8737,-0.0195 -7.2319,-0.17786 z m -42.3333,-39.7537803 c -1.991,-1.045111 -3.7771,-3.086721 -4.9815,-5.693961 -2.0377,-4.41102 -3.2081,-8.47522 -3.8027,-13.20485 -0.8931,-7.10359 -0.7976,-8.86257 0.9918,-18.2646 0.6816,-3.58122 0.6173,-3.40153 3.1563,-8.81944 1.8142,-3.87097 4.4156,-6.85688 6.9279,-7.95176 0.8724,-0.38021 2.1998,-1.28528 2.9499,-2.01125 1.5149,-1.46641 3.0677,-2.01083 5.923,-2.07665 2.7081,-0.0624 4.0517,0.29067 6.5126,1.71154 1.7967,1.03735 2.3818,1.6331 3.5177,3.58137 2.3812,4.08459 4.0279,9.77233 4.0283,13.91405 4e-4,4.95618 -1.6996,13.73682 -3.496,18.05631 -0.6376,1.53303 -3.263,7.12534 -3.892,8.29027 -0.3667,0.6791 -1.2302,2.36977 -1.9189,3.75705 -1.4805,2.98228 -3.5843,5.52367 -5.8282,7.04048 -3.0484,2.060621 -7.8358,2.853821 -10.0882,1.671441 z m 5.0411,-5.377031 c 2.9587,-1.51269 4.4134,-3.6589 9.5889,-14.14749 2.5731,-5.21465 4.8404,-15.1156 4.4836,-19.57917 -0.2184,-2.73246 -1.8474,-7.88838 -3.2467,-10.27611 -0.8865,-1.51267 -2.9645,-2.95305 -4.2604,-2.95305 -0.8307,0 -3.9064,1.93881 -5.7376,3.61672 -1.0312,0.94491 -1.6231,1.27499 -1.7931,0.99991 -0.5294,-0.85655 -2.0515,0.22891 -3.0216,2.15482 -5.119,10.1623 -5.6594,23.70126 -1.3979,35.0231 1.234,3.27835 1.8778,4.49127 2.763,5.20524 0.9519,0.76781 1.0368,0.76638 2.6218,-0.044 z m 75.0394,-5.59345 c -3.8026,-0.33148 -6.0398,-1.92615 -7.7136,-5.49816 -1.7142,-3.65843 -2.9031,-10.50411 -3.2878,-18.93088 -0.5171,-11.32862 3.1365,-23.96067 7.6806,-26.55513 1.3263,-0.75726 1.7619,-1.31432 1.0278,-1.31432 -0.1941,0 -0.3528,-0.21702 -0.3528,-0.48228 0,-0.4934 2.5083,-2.339936 3.1785,-2.339936 0.2043,0 0.4572,-0.22346 0.562,-0.49658 0.1048,-0.27312 0.9793,-0.8359 1.9434,-1.25063 1.4435,-0.62099 2.1394,-0.71299 3.9435,-0.52136 3.9073,0.41504 7.4855,2.56835 8.7547,5.268546 0.4101,0.87238 0.8869,1.58613 1.0595,1.58613 0.1727,0 0.3139,0.15637 0.3139,0.34748 0,0.19111 0.4891,1.14228 1.0868,2.11371 0.9838,1.59884 1.1061,2.12591 1.2907,5.56155 0.5175,9.6279 0.3608,12.32822 -1.1819,20.37587 -0.074,0.38806 -0.2021,1.10244 -0.2837,1.5875 -0.3296,1.95964 -2.9364,8.7553 -3.6296,9.46201 -0.2515,0.25639 -0.4573,0.60224 -0.4573,0.76855 0,0.16631 -0.2038,0.51216 -0.4528,0.76855 -0.2491,0.2564 -0.8792,1.18055 -1.4003,2.05367 -2.1473,3.59821 -6.3302,6.90013 -9.2908,7.33406 -0.9529,0.13965 -2.2087,0.2124 -2.7908,0.16165 z m 3.0982,-6.24183 c 4.4694,-2.00802 7.9505,-9.41948 9.9506,-21.18582 0.4689,-2.75849 0.5498,-4.60478 0.3708,-8.46667 -0.3359,-7.24654 -0.8181,-9.22371 -3.1221,-12.80098 -1.8755,-2.9121 -3.1361,-3.24459 -8.2541,-2.17708 l -2.19,0.45678 0.2056,1.49982 c 0.1621,1.18286 0.048,1.72087 -0.5392,2.54581 -2.2335,3.13659 -3.4861,8.68127 -3.8095,16.86302 -0.3167,8.01 0.6645,17.46437 2.1918,21.11978 1.0758,2.57461 2.725,3.25553 5.1961,2.14534 z m -86.892,-56.304176 c -1.509,-2.81961 1.9077,-9.84674 7.5908,-15.61219 2.1688,-2.20019 3.3232,-3.04656 5.7505,-4.21626 2.708,-1.30497 3.3784,-1.47981 6.1891,-1.6142 1.7922,-0.0857 4.0066,0.0364 5.1328,0.28299 2.6917,0.58939 7.5184,2.8817 9.8821,4.69329 1.0695,0.81966 2.0893,1.59054 2.2664,1.71308 0.177,0.12255 0.3826,0.75755 0.4568,1.41112 0.074,0.65357 0.2094,1.38674 0.3003,1.62928 0.097,0.25944 -0.1205,0.44097 -0.5291,0.44097 -0.474,0 -0.6945,0.23919 -0.6945,0.75351 0,0.69578 -0.1284,0.73601 -1.6757,0.5252 -0.9495,-0.12937 -2.4401,-0.71197 -3.4396,-1.34437 -7.2341,-4.57725 -10.7997,-5.4189 -14.8463,-3.50448 -4.6522,2.20087 -10.7301,9.58761 -10.7301,13.04078 0,1.09308 -1.4618,2.10846 -3.4052,2.36534 -1.6558,0.21884 -1.8562,0.16855 -2.2483,-0.56406 z m 106.7791,-6.27261 c -0.3212,-0.35483 -0.5839,-0.91555 -0.5839,-1.24606 0,-1.96728 -3.5656,-6.11425 -7.5481,-8.77882 -2.3913,-1.59994 -5.6817,-1.14745 -11.1377,1.53163 -2.7488,1.34974 -3.1149,1.44214 -4.5861,1.15747 -1.5088,-0.29192 -1.6049,-0.38003 -1.7043,-1.56289 -0.1618,-1.92584 0.9117,-2.94708 5.3486,-5.08815 3.6478,-1.76028 7.8879,-3.00693 10.227,-3.00693 2.0313,0 5.5342,1.45341 7.5465,3.13117 5.6496,4.71048 7.3454,7.40851 6.9352,11.0341 -0.2506,2.2152 -0.3482,2.3459 -2.2589,3.02448 -1.5818,0.56179 -1.55,0.56457 -2.2383,-0.196 z m 51.2228,7.25079 c -1.3767,-0.46241 -3.5273,-2.83006 -4.2377,-4.66538 -0.2253,-0.58208 -2.8925,-5.97958 -5.9271,-11.99444 -5.6923,-11.28277 -8.0686,-17.16476 -9.5487,-23.63611 -1.324,-5.78867 -1.4015,-6.17775 -1.4015,-7.03213 0,-0.46661 -0.4284,-2.88527 -0.9521,-5.3748 -0.8415,-4.0008 -0.9504,-5.28424 -0.9385,-11.05279 0.024,-11.69755 2.3405,-19.30174 8.913,-29.26166 3.4664,-5.25305 14.9993,-14.94116 21.799,-18.31213 2.0958,-1.03898 4.5249,-2.27386 5.398,-2.74417 5.0573,-2.72409 10.4378,-5.07931 13.2292,-5.79079 3.4214,-0.87205 6.5716,-1.00175 13.9541,-0.57448 4.7062,0.27238 6.7955,0.8087 9.5056,2.44005 1.0672,0.64238 3.0515,1.78865 4.4097,2.54726 5.0475,2.81926 11.2485,9.97458 15.2395,17.585 1.8618,3.55024 4.4473,10.72781 4.7263,13.12064 1.0238,8.78043 -0.817,22.97606 -4.1401,31.92639 -1.862,5.01498 -2.0046,5.25543 -6.6254,11.16511 -3.659,4.6797 -16.9544,17.76266 -18.0511,17.76266 -0.1401,0 -0.7751,0.39688 -1.4111,0.88195 -0.6359,0.48507 -1.2459,0.88194 -1.3554,0.88194 -0.1095,0 -0.9766,0.55857 -1.9268,1.24126 -1.5003,1.07786 -4.1625,2.65736 -7.9753,4.73186 -0.5821,0.31671 -2.0618,1.24544 -3.2882,2.06386 -1.2263,0.81841 -2.3251,1.48802 -2.4416,1.48802 -0.1165,0 -0.4625,0.22013 -0.7688,0.48916 -0.3063,0.26904 -3.097,1.7941 -6.2014,3.38902 -6.376,3.27567 -10.266,5.48802 -11.2317,6.38768 -0.3608,0.33619 -1.0532,0.71094 -1.5386,0.83275 -0.4853,0.12182 -1.3031,0.53072 -1.8172,0.90867 -1.1875,0.87302 -3.7334,1.15403 -5.3961,0.5956 z m 8.6583,-8.93722 c 8.2865,-4.17965 12.6757,-6.58157 16.2025,-8.86644 1.9063,-1.23504 4.8432,-2.98048 6.5263,-3.87876 1.6832,-0.89827 4.3304,-2.45337 5.8826,-3.45578 1.5522,-1.0024 3.7747,-2.39333 4.9389,-3.09095 2.8599,-1.7138 14.6786,-13.8077 18.0943,-18.51575 1.4147,-1.94986 2.9506,-4.51092 3.4131,-5.69124 0.9283,-2.36857 2.3051,-7.65967 2.3051,-8.85828 0,-0.42083 0.2188,-1.58333 0.4862,-2.58333 1.8065,-6.75627 2.0806,-16.078 0.6316,-21.47639 -1.7267,-6.43229 -5.9535,-13.81734 -10.9336,-19.10308 -1.851,-1.96463 -3.69,-3.80462 -4.0866,-4.08888 -1.7846,-1.2792 -7.9622,-4.87955 -8.9831,-5.23544 -0.6218,-0.21674 -3.5499,-0.50201 -6.5068,-0.63393 -5.6167,-0.25057 -9.1452,0.0996 -11.0582,1.09734 -0.5505,0.28711 -1.1859,0.523 -1.4119,0.52419 -0.2261,0.001 -2.7166,1.15311 -5.5344,2.55981 -2.8179,1.40671 -6.116,3.03389 -7.3292,3.61598 -2.2957,1.10156 -6.7689,3.99677 -8.5976,5.56468 -0.5821,0.49908 -2.737,2.33002 -4.7888,4.06875 -3.3636,2.8505 -7.0455,7.05697 -8.3536,9.54365 -0.2433,0.46256 -0.8261,1.57569 -1.2951,2.47363 -1.8279,3.49992 -3.0798,7.52343 -4.4303,14.23907 -0.8256,4.10578 -0.4603,11.38259 0.8815,17.55605 0.2741,1.26118 0.5689,2.84868 0.655,3.52778 0.405,3.19091 2.7739,12.6475 3.7559,14.99305 0.1625,0.38806 0.7199,1.81681 1.2387,3.175 0.5189,1.3582 2.296,5.08882 3.9492,8.29028 2.9169,5.64861 5.0217,9.82749 7.2409,14.37569 0.7853,1.60962 1.266,2.20487 1.7804,2.20487 0.3875,0 2.7847,-1.04921 5.327,-2.33157 z m 19.373,-35.3739 c -0.6184,-0.11998 -1.5709,-0.60976 -2.1166,-1.0884 -0.5457,-0.47863 -2.8178,-2.40234 -5.0492,-4.2749 -2.2313,-1.87255 -4.8069,-4.25907 -5.7236,-5.30336 -0.9166,-1.04429 -2.0698,-2.319 -2.5625,-2.83269 -1.3447,-1.4019 -4.0611,-4.96559 -4.0611,-5.32781 0,-0.1747 -0.6558,-1.42149 -1.4573,-2.77063 -3.5887,-6.04072 -5.1522,-13.55118 -3.5212,-16.91457 2.211,-4.55951 3.5349,-5.6217 9.3902,-7.53412 4.7603,-1.55475 9.7645,-1.04884 14.2779,1.44343 2.2253,1.22876 4.8045,3.09174 6.1068,4.4109 0.7539,0.76366 1.269,0.80138 2.2008,0.16113 2.8354,-1.9483 10.1311,-2.79787 13.0383,-1.51827 5.6315,2.47876 5.9045,8.64442 0.7439,16.80447 -0.7945,1.25644 -1.6034,2.53981 -1.7974,2.85193 -0.6283,1.0107 -3.0508,4.7166 -3.676,5.62336 -0.3344,0.48507 -1.6946,2.46944 -3.0226,4.40972 -3.1908,4.66168 -5.8982,8.05221 -8.2397,10.31875 -1.9342,1.8722 -2.2573,1.98209 -4.5307,1.54106 z m 2.8171,-6.88029 c 0.4272,-0.46272 1.4119,-1.74131 2.188,-2.8413 0.7761,-1.09999 1.808,-2.54451 2.293,-3.21003 1.0891,-1.49419 3.3922,-4.86458 5.4614,-7.99226 2.1508,-3.25102 5.1454,-9.48372 5.3734,-11.18379 0.4029,-3.00399 -0.5193,-4.2702 -3.1102,-4.2702 -3.3399,0 -4.96,1.23252 -5.4257,4.12774 -0.228,1.4177 -0.3021,1.4913 -1.7096,1.69914 -2.4021,0.3547 -4.1488,-0.42482 -5.0776,-2.26611 -2.2196,-4.40034 -8.6655,-8.38821 -13.6647,-8.45387 -2.4452,-0.0321 -5.3226,0.87363 -6.1609,1.93934 -2.3076,2.93366 -1.8392,8.55097 1.1876,14.24059 2.4189,4.54693 6.9922,10.0854 11.7256,14.20008 2.0655,1.79547 4.0865,3.6188 4.4913,4.05186 0.943,1.00903 1.4667,1.00014 2.4284,-0.0412 z"
       id="path1114"
       inkscape:connector-curvature="0" />
  </g>
</svg>
