<?xml version="1.0" encoding="UTF-8" standalone="no"?>
<!-- Created with Inkscape (http://www.inkscape.org/) -->

<svg
   xmlns:dc="http://purl.org/dc/elements/1.1/"
   xmlns:cc="http://creativecommons.org/ns#"
   xmlns:rdf="http://www.w3.org/1999/02/22-rdf-syntax-ns#"
   xmlns:svg="http://www.w3.org/2000/svg"
   xmlns="http://www.w3.org/2000/svg"
   xmlns:sodipodi="http://sodipodi.sourceforge.net/DTD/sodipodi-0.dtd"
   xmlns:inkscape="http://www.inkscape.org/namespaces/inkscape"
   width="248.668mm"
   height="223.96733mm"
   viewBox="0 0 248.668 223.96733"
   version="1.1"
   id="svg8"
   inkscape:version="0.92.5 (2060ec1f9f, 2020-04-08)"
   sodipodi:docname="e_17.svg">
  <defs
     id="defs2" />
  <sodipodi:namedview
     id="base"
     pagecolor="#ffffff"
     bordercolor="#666666"
     borderopacity="1.0"
     inkscape:pageopacity="0.0"
     inkscape:pageshadow="2"
     inkscape:zoom="0.087500001"
     inkscape:cx="2922.5984"
     inkscape:cy="1042.382"
     inkscape:document-units="mm"
     inkscape:current-layer="layer1"
     showgrid="false"
     inkscape:window-width="1920"
     inkscape:window-height="1029"
     inkscape:window-x="0"
     inkscape:window-y="0"
     inkscape:window-maximized="1"
     fit-margin-top="0"
     fit-margin-left="0"
     fit-margin-right="0"
     fit-margin-bottom="0"
     inkscape:showpageshadow="false" />
  <metadata
     id="metadata5">
    <rdf:RDF>
      <cc:Work
         rdf:about="">
        <dc:format>image/svg+xml</dc:format>
        <dc:type
           rdf:resource="http://purl.org/dc/dcmitype/StillImage" />
        <dc:title></dc:title>
      </cc:Work>
    </rdf:RDF>
  </metadata>
  <g
     inkscape:label="Calque 1"
     inkscape:groupmode="layer"
     id="layer1"
     transform="translate(-86.364427,228.26688)">
    <path
       style="fill:#000000;stroke-width:0.35277778"
       d="m 334.87319,-127.92997 c -0.14347,0.49119 -0.33382,3.82117 -0.423,7.39998 -0.11438,4.60912 -0.40606,7.97451 -0.99844,11.53878 -0.45997,2.76753 -1.12932,6.85128 -1.48745,9.074992 -1.4583,9.054974 -2.80099,14.071264 -6.28975,23.498495 -1.0327,2.790524 -2.21381,6.177532 -2.62469,7.526693 -0.41088,1.349151 -1.09026,3.239116 -1.50974,4.199919 -0.41947,0.960803 -1.13537,2.691142 -1.59086,3.845203 -0.4555,1.15405 -1.32235,3.11913 -1.92633,4.36683 -0.60399,1.247701 -1.41502,3.113641 -1.8023,4.146528 -1.0926,2.913988 -1.76972,3.876553 -10.20449,14.506256 -1.98726,2.504392 -4.54152,5.299609 -5.67614,6.211583 -1.13461,0.911975 -3.36393,2.744568 -4.95405,4.07243 -1.59011,1.327861 -3.2884,2.682327 -3.77395,3.009935 -2.84014,1.916233 -7.8874,4.965134 -9.11106,5.503716 -0.7842,0.345165 -2.64712,1.187985 -4.13981,1.872925 -1.4927,0.684951 -3.09527,1.326238 -3.56128,1.425102 -4.05148,0.85946 -5.97837,1.437288 -9.70434,2.910069 -2.36524,0.934921 -5.10052,1.967771 -6.0784,2.295215 -0.97788,0.327454 -2.65613,0.9044551 -3.72947,1.2822306 -1.07332,0.3777857 -2.30669,0.6787531 -2.74081,0.6688279 -0.68908,-0.015754 -3.75746,0.6020729 -7.93276,1.5972681 -0.69997,0.1668444 -2.69064,0.4191796 -4.42369,0.560754 -1.73307,0.1415643 -4.65886,0.5524369 -6.50176,0.9130318 -1.84291,0.3606009 -3.86461,0.6438848 -4.49267,0.6295256 -0.62805,-0.014359 -1.2542,0.1466108 -1.39145,0.3577191 -0.17177,0.2642328 -1.36076,0.2856816 -3.81575,0.068831 -3.79453,-0.3351592 -6.03318,-0.832388 -6.37575,-1.4161208 -0.13175,-0.2244739 -1.54685,-0.3061803 -3.80324,-0.2195879 -2.14082,0.082159 -4.16027,-0.025098 -4.99568,-0.2654097 -0.77124,-0.2218262 -2.34885,-0.6724135 -3.50581,-1.0013039 -1.15695,-0.3289005 -4.68825,-0.8121616 -7.84733,-1.0739272 -6.8261,-0.5656122 -8.45212,-0.8469315 -15.35678,-2.6568346 -5.76198,-1.510376 -8.55037,-2.102365 -11.2373,-2.385724 -0.96806,-0.102054 -2.62821,-0.278536 -3.68922,-0.392107 -2.09738,-0.224509 -8.97729,-2.387128 -9.81676,-3.085788 -0.28568,-0.237762 -1.38585,-0.735069 -2.44482,-1.10512 -1.05897,-0.370052 -2.23822,-0.88125 -2.62055,-1.135985 -0.38234,-0.254736 -0.99507,-0.522251 -1.36163,-0.594488 -0.36656,-0.0722 -1.07093,-0.518144 -1.56526,-0.990926 -0.49433,-0.472773 -2.14957,-1.714631 -3.6783,-2.759686 -11.12806,-7.607251 -18.44834,-13.429932 -23.73987,-18.883116 -1.42209,-1.465517 -3.56577,-3.479572 -4.76376,-4.475654 -2.95483,-2.456861 -5.06326,-4.554731 -7.35003,-7.313221 -2.03307,-2.45246 -7.03327,-9.825186 -7.88605,-11.627879 -1.33377,-2.819483 -5.236082,-10.689764 -6.724822,-13.562813 -4.974769,-9.600566 -5.573579,-11.334676 -6.693748,-19.384453 -0.666806,-4.791885 -0.754027,-5.565025 -0.917882,-8.136995 -0.288073,-4.52171 -0.702757,-9.05354 -1.042868,-11.3967 -0.58194,-4.00936 0.110379,-11.78153 1.494779,-16.78077 2.224402,-8.03259 5.61805,-16.98876 8.830927,-23.30574 1.170906,-2.30218 2.698131,-5.31112 3.393824,-6.68655 0.69569,-1.37542 1.74645,-3.1775 2.33502,-4.00462 0.58857,-0.82712 1.07746,-1.69832 1.08643,-1.93601 0.009,-0.23766 0.58304,-0.92466 1.27572,-1.52663 0.69268,-0.60196 1.7012,-1.8134 2.24113,-2.69206 0.53995,-0.87867 2.00819,-2.84445 3.26277,-4.36839 3.52555,-4.28248 3.76132,-4.591 3.76912,-4.93195 0.0149,-0.65194 12.02537,-11.62235 15.3092,-13.98348 6.4325,-4.62509 9.49702,-6.72007 9.81928,-6.7127 0.17753,0.004 0.41958,-0.22859 0.53789,-0.517 0.1183,-0.28841 0.43871,-0.51928 0.71201,-0.51303 0.2733,0.006 0.70151,-0.22399 0.95157,-0.51165 0.55223,-0.63529 3.41175,-1.85868 4.29709,-1.83844 0.35185,0.008 0.75156,-0.1574 0.88824,-0.36765 0.13668,-0.21025 1.21821,-0.81404 2.4034,-1.34175 1.18519,-0.52769 2.25061,-1.08302 2.36758,-1.23403 0.26746,-0.34531 2.67454,-1.66008 4.31833,-2.35871 0.68594,-0.29154 1.88853,-0.80154 2.67243,-1.13334 2.29758,-0.97246 7.74134,-2.77263 14.22234,-4.7031 3.32195,-0.98948 6.84074,-2.0995 7.81953,-2.4667 3.21809,-1.20727 6.3364,-2.02796 10.65018,-2.80293 2.33854,-0.42013 5.28902,-0.98115 6.5566,-1.24673 1.26758,-0.26558 4.13191,-0.53157 6.36517,-0.59109 10.46004,-0.27875 16.32732,-0.58906 19.25523,-1.01834 7.66242,-1.12345 22.37762,0.35294 27.86857,2.79609 0.67202,0.29901 3.22164,1.08185 5.66583,1.73966 6.44341,1.73412 12.61537,3.75525 14.43192,4.72603 0.86924,0.46453 3.77212,1.62925 6.45085,2.58825 4.99288,1.78749 5.94388,2.34922 9.23259,5.45327 1.99852,1.88632 8.63378,6.98443 13.38223,10.28206 4.19442,2.91289 10.43727,10.13846 12.2643,14.1949 0.79727,1.7701 1.95064,3.63352 2.77322,4.48047 1.52569,1.5709 4.32008,5.28176 4.30998,5.72352 -0.003,0.14997 0.72181,1.41917 1.61165,2.82044 0.88983,1.40125 1.77025,2.82903 1.95646,3.17282 0.18622,0.34378 1.06023,1.88676 1.94224,3.42884 0.88202,1.54207 1.98587,3.75383 2.453,4.91502 0.46713,1.16119 1.06891,2.52775 1.3373,3.03681 0.26837,0.50905 0.57223,1.62754 0.67521,2.48553 0.103,0.85798 0.38543,2.19965 0.62762,2.98151 3.00834,9.71167 5.27515,22.41768 4.48314,25.12917 z m -6.25509,-9.81984 c -0.26206,-1.07342 -0.6206,-2.85217 -0.79676,-3.95277 -0.29976,-1.87293 -2.34818,-9.87415 -3.91647,-15.29791 -0.38128,-1.3186 -1.27212,-3.40885 -1.97967,-4.645 -0.70754,-1.23615 -2.11472,-3.84881 -3.12707,-5.80591 l -1.84063,-3.55834 -1.36671,-0.0312 c -1.33602,-0.0305 -1.40633,-0.0995 -3.13311,-3.07104 -0.97153,-1.67187 -2.46922,-4.5071 -3.3282,-6.30051 -1.33207,-2.78113 -2.15385,-3.88986 -5.58714,-7.53801 -2.72262,-2.89301 -4.86647,-4.8104 -6.62434,-5.9246 -1.42945,-0.90604 -3.45988,-2.38686 -4.51208,-3.29071 -1.0522,-0.90386 -3.00743,-2.39532 -4.34498,-3.31436 -1.33753,-0.91904 -3.65221,-2.83234 -5.14372,-4.25177 -2.45753,-2.33878 -2.99583,-2.67457 -5.74023,-3.58072 -1.66563,-0.54996 -4.52193,-1.66023 -6.34738,-2.46726 -5.05569,-2.23514 -6.62047,-2.78597 -13.82732,-4.86747 -3.66331,-1.05804 -7.30775,-2.22733 -8.09878,-2.5984 -2.56766,-1.20453 -7.54497,-2.24812 -13.4787,-2.82609 -5.0812,-0.49493 -6.18683,-0.50358 -8.82018,-0.069 -1.65591,0.27328 -4.75903,0.56563 -6.89581,0.6497 -2.13679,0.0841 -4.52096,0.18465 -5.29816,0.22353 -0.77721,0.0388 -3.15955,0.0596 -5.2941,0.0461 -2.13456,-0.0135 -4.59799,0.0808 -5.47428,0.2096 -4.6047,0.67676 -11.24534,1.94955 -11.85724,2.27264 -0.38406,0.20279 -1.60568,0.55863 -2.71472,0.79076 -1.10903,0.23213 -4.50731,1.2443 -7.55172,2.24926 -3.04443,1.00497 -5.68557,1.82379 -5.8692,1.81959 -0.79296,-0.0181 -12.88082,3.78576 -15.23493,4.79423 -1.42255,0.60941 -4.17264,1.95119 -6.11133,2.98175 -1.93868,1.03055 -4.79559,2.38359 -6.34867,3.00673 -1.5531,0.62314 -3.9659,1.82874 -5.36179,2.67911 -4.00147,2.43767 -11.1135,7.62589 -14.60729,10.65599 -3.31387,2.87409 -9.57306,9.39996 -12.77193,13.31613 -7.33596,8.98095 -13.99905,20.70015 -17.626774,31.00244 -0.508468,1.44396 -1.183095,3.33403 -1.499185,4.20016 -0.559307,1.5326 -1.562431,4.67394 -2.628823,8.23234 -1.133867,3.78353 -1.567862,8.78253 -1.235864,14.23506 0.855682,14.05305 1.074388,16.16842 2.69073,26.025383 0.33609,2.049587 1.705204,5.442147 2.946496,7.301195 0.328994,0.492719 1.319426,2.34147 2.20097,4.108331 0.88155,1.766861 2.16717,4.257518 2.85695,5.534798 0.68977,1.27728 1.80621,3.470861 2.48095,4.87462 1.99551,4.151496 2.90317,5.905321 3.34471,6.462799 0.22882,0.288895 0.57451,0.810433 0.76819,1.158971 0.19369,0.348538 1.04549,1.562535 1.89288,2.697771 0.84741,1.135245 1.69408,2.301813 1.88152,2.592373 0.60933,0.944584 4.6297,4.887158 5.64817,5.538877 0.54548,0.349049 2.78161,2.442918 4.96919,4.653047 2.18758,2.210129 4.57979,4.47705 5.31603,5.037614 0.73624,0.560555 2.34943,1.951771 3.58488,3.091588 1.23545,1.139806 4.51268,3.65036 7.28273,5.578999 2.77004,1.928638 5.19101,3.690835 5.37994,3.916012 0.61901,0.737732 3.40336,2.489591 7.30519,4.596266 7.0673,3.815774 10.28461,4.868357 16.81201,5.500259 1.74285,0.16873 4.74691,0.736153 6.67569,1.260956 8.4502,2.299197 13.40482,3.27429 18.96962,3.733314 5.35487,0.441712 7.26828,0.811733 11.21014,2.167867 2.55164,0.877852 6.88489,0.884269 9.04396,0.01339 1.9659,-0.792962 2.90127,-0.714142 6.20246,0.522657 l 2.15192,0.806227 6.14444,-0.977262 c 3.37944,-0.537487 7.09942,-1.074949 8.26662,-1.194362 1.1672,-0.119402 4.03838,-0.684993 6.38039,-1.256871 2.34202,-0.571878 5.45563,-1.322827 6.91913,-1.668796 1.4635,-0.345959 3.14193,-0.832602 3.72985,-1.081429 0.58793,-0.248827 1.6291,-0.643672 2.31372,-0.877425 0.68462,-0.233752 2.1957,-0.851365 3.35796,-1.372455 1.16225,-0.521101 2.24551,-0.944431 2.40722,-0.940734 0.16172,0.0037 0.97368,-0.278147 1.80435,-0.626322 0.83068,-0.348174 2.94878,-1.040941 4.70688,-1.539477 5.81451,-1.648808 12.59186,-4.825178 16.0894,-7.540684 0.61395,-0.476672 1.42427,-1.097822 1.80069,-1.380332 2.85394,-2.141897 7.11309,-5.654174 9.16002,-7.553713 3.17159,-2.943236 11.42089,-13.946896 12.66439,-16.892903 0.38999,-0.923938 1.15097,-2.588279 1.69107,-3.698524 1.2245,-2.517149 3.513,-8.41082 5.66554,-14.590704 0.9054,-2.599365 2.16331,-6.064018 2.79537,-7.699228 3.08696,-7.986328 4.63616,-13.442603 5.77354,-20.334463 0.46268,-2.80356 1.1894,-6.99491 1.61493,-9.31413 0.42553,-2.31921 0.9447,-6.9917 1.1537,-10.38329 0.20901,-3.3916 0.44006,-6.23133 0.51344,-6.31052 0.3827,-0.41298 0.24715,-8.19399 -0.17269,-9.91371 z m -49.43831,-17.36233 c -0.11742,0.28844 -0.31055,0.60252 -0.42919,0.69798 -0.24725,0.19891 -10.24658,10.03401 -16.00982,15.74685 -2.24607,2.22644 -3.88798,4.13881 -3.89713,4.53908 -0.009,0.38044 0.72219,1.40257 1.6242,2.27137 2.53921,2.44577 5.59025,6.29367 5.57343,7.02912 -0.0196,0.85642 -1.81787,2.36222 -2.91302,2.43922 -1.65572,0.11643 -2.42973,-0.3624 -3.85229,-2.38309 -1.66231,-2.36127 -4.86073,-5.85295 -5.37207,-5.86464 -0.19187,-0.004 -1.97299,1.5295 -3.95804,3.40863 -3.93712,3.72703 -5.2356,4.54001 -7.40546,4.6365 -2.19145,0.0975 -2.69876,-0.14682 -2.41842,-1.16472 0.13134,-0.47687 0.0483,-1.61268 -0.18453,-2.52402 l -0.42332,-1.65697 4.93304,-4.4965 c 2.73396,-2.49204 4.93946,-4.77695 4.94743,-5.1256 0.0388,-1.69683 -5.87539,-8.84566 -10.30141,-12.45195 -1.04791,-0.85383 -2.02755,-1.77646 -2.17697,-2.0503 -0.2927,-0.53639 -0.30844,-4.67849 -0.0188,-4.95515 0.40027,-0.38237 5.30596,2.96484 8.29693,5.66109 3.14813,2.83793 7.37996,7.64098 7.97947,9.05654 0.66275,1.56489 0.7158,1.51998 15.9874,-13.53511 5.2119,-5.13801 5.25778,-5.14857 8.38232,-1.9297 1.05002,1.08172 1.89577,2.00282 1.87944,2.04686 -0.0163,0.044 -0.12576,0.31608 -0.24317,0.60451 z m -7.03696,78.816753 c -0.76862,1.71705 -3.34861,5.090601 -7.00121,9.154625 -1.92932,2.146642 -4.28329,4.917391 -5.23104,6.157233 -4.86481,6.364157 -6.48395,8.323211 -8.99172,10.879478 -1.50578,1.534894 -3.11025,3.25857 -3.56551,3.830404 -1.94341,2.441017 -7.68517,7.712495 -9.97967,9.162268 -5.54009,3.500485 -7.13462,4.101465 -12.61512,4.754588 -6.30539,0.751434 -12.06101,0.307432 -22.89617,-1.766289 -7.82859,-1.49829 -19.57801,-6.041463 -24.10799,-9.321872 -0.49186,-0.356186 -2.06714,-1.438225 -3.50064,-2.404543 -1.43349,-0.966328 -3.0891,-2.175136 -3.67912,-2.686255 -0.59002,-0.51111 -1.75523,-1.500672 -2.58938,-2.19902 -4.39061,-3.675827 -11.42118,-11.728639 -13.89873,-15.919583 -0.18685,-0.316073 -0.99709,-1.517007 -1.80054,-2.668722 -7.76121,-11.125505 -8.9378,-13.306528 -9.41333,-17.449279 -0.11168,-0.972937 -0.34104,-2.165791 -0.50966,-2.650782 -0.4045,-1.16329 0.11611,-4.610411 0.56763,-3.758468 0.17868,0.337152 0.74879,0.605343 1.31426,0.618272 1.21906,0.02787 3.15543,1.956925 3.1289,3.117092 -0.01,0.436675 0.13832,0.895665 0.32955,1.019988 0.19123,0.124314 0.33941,0.588592 0.32928,1.031716 -0.047,2.056063 1.37867,5.210424 4.04453,8.948634 0.5628,0.78919 1.69908,2.482475 2.52509,3.762869 1.50825,2.337965 2.4867,3.651883 4.55636,6.118523 0.61402,0.731796 1.11387,1.441427 1.11077,1.576941 -0.0357,1.559923 9.02249,11.047434 14.2525,14.92807 6.47622,4.805323 7.96145,5.650651 14.46211,8.231151 8.57444,3.403715 19.9171,5.555817 28.60037,5.426507 5.93033,-0.0883 8.08531,-0.462345 11.32557,-1.965775 5.07834,-2.35628 7.06838,-3.91269 12.85932,-10.057292 1.68352,-1.786326 3.81418,-4.040085 4.73478,-5.008365 2.89871,-3.048791 5.85368,-6.605108 8.11725,-9.769156 1.20292,-1.681445 3.06056,-3.996399 4.1281,-5.144358 2.40956,-2.591092 6.24067,-7.338205 6.86221,-8.502962 0.25574,-0.47924 0.6763,-1.510447 0.93457,-2.291567 l 0.46959,-1.420208 1.50311,0.341476 c 2.88448,0.655282 4.67351,3.580068 3.62398,5.924661 z m -34.08325,-43.940573 c -0.19672,0.11544 -0.35223,-0.0282 -0.34558,-0.31912 0.007,-0.29097 0.17305,-0.62349 0.36977,-0.73894 0.19672,-0.11545 0.35223,0.0282 0.34557,0.31912 -0.007,0.29096 -0.17304,0.62349 -0.36976,0.73894 z m -50.70613,-39.41325 c -1.63779,1.60276 -6.94623,6.32738 -11.79653,10.49917 -4.8503,4.17179 -9.04375,7.84516 -9.31877,8.16304 -0.5551,0.64161 -0.37755,0.97938 2.66458,5.06934 1.87921,2.52651 2.75137,3.72106 4.96126,6.79511 0.94047,1.30826 2.28876,3.10772 2.99618,3.9988 1.40988,1.77591 1.53758,2.32371 0.72304,3.10184 -0.29762,0.28431 -0.54459,0.66846 -0.54883,0.85367 -0.009,0.39642 -1.21675,0.73266 -2.54668,0.70906 -0.78345,-0.0139 -1.39055,-0.6363 -3.60367,-3.69449 -1.46381,-2.02277 -2.82361,-3.86673 -3.02175,-4.09769 -0.19816,-0.23096 -1.65437,-2.20176 -3.23605,-4.37956 -2.42291,-3.33611 -2.97537,-3.90921 -3.50837,-3.63946 -0.87589,0.44332 -4.80326,4.80869 -7.21086,8.01505 -1.72705,2.30003 -2.23523,2.73979 -3.70331,3.20472 -2.04517,0.64769 -2.64437,0.46277 -2.76488,-0.85329 -0.05,-0.54632 -0.28888,-1.01769 -0.5308,-1.04748 -0.24191,-0.0298 -0.58678,-0.0773 -0.76637,-0.10574 -0.17957,-0.0284 -0.26268,-0.76186 -0.18468,-1.63 0.21578,-2.40145 4.19682,-7.82813 9.21757,-12.56475 0.84302,-0.79531 1.53867,-1.70437 1.54589,-2.02013 0.0185,-0.80971 -1.74001,-3.39465 -4.12628,-6.0654 -1.11905,-1.25247 -2.02915,-2.5174 -2.02244,-2.81096 0.007,-0.29356 -0.27121,-1.20764 -0.61759,-2.03131 -1.13799,-2.70596 -0.16055,-3.47035 2.8139,-2.20059 1.39617,0.59601 4.48616,3.94663 6.91752,7.50097 0.61965,0.90586 1.27668,1.65044 1.46006,1.65464 0.18339,0.004 2.21203,-1.57704 4.50811,-3.51385 4.35574,-3.67419 4.62133,-3.90359 8.1929,-7.07626 1.20678,-1.072 3.68076,-3.24497 5.49775,-4.82881 1.81697,-1.58384 3.58926,-3.33975 3.93841,-3.902 0.56375,-0.90786 0.77245,-0.99531 1.86435,-0.78115 2.11544,0.41489 3.07777,0.98481 3.49944,2.07248 0.22413,0.57812 0.69954,1.21612 1.05646,1.41777 0.35693,0.20165 0.64431,0.57061 0.63861,0.81991 -0.006,0.2493 -1.35038,1.76461 -2.98817,3.36735 z m -44.68903,64.998688 c -0.0961,-0.256923 -0.0766,-0.560828 0.0432,-0.675348 0.11988,-0.11451 0.19848,0.09566 0.17466,0.467134 -0.0263,0.410476 -0.11179,0.492133 -0.21794,0.208213 z m 174.41387,78.729899 c -0.28637,-0.0065 -0.61075,-0.263689 -0.72083,-0.571426 -0.13958,-0.390172 -0.0234,-0.521011 0.38397,-0.432306 0.74321,0.16185 1.03109,1.019604 0.33686,1.003732 z"
       id="path1136"
       inkscape:connector-curvature="0" />
  </g>
</svg>
